/* XPM */
static char *Free_Converter_com_imgonline_com_ua_resize_km3qf1ddjjgw_29110112[] = {
/* columns rows colors chars-per-pixel */
"128 128 256 2 ",
"   c #140D1A",
".  c #18141A",
"X  c #0F0A13",
"o  c #281918",
"O  c #2C1217",
"+  c #2E221C",
"@  c #090B27",
"#  c #0B1429",
"$  c #181726",
"%  c #071537",
"&  c #161A36",
"*  c #0C0C30",
"=  c #251A25",
"-  c #32192F",
";  c #18233A",
":  c #122439",
">  c #292428",
",  c #272538",
"<  c #362C30",
"1  c #1E231F",
"2  c #493234",
"3  c #672E1D",
"4  c #534438",
"5  c #6A503C",
"6  c #0E1B47",
"7  c #182848",
"8  c #172956",
"9  c #112D53",
"0  c #272847",
"q  c #283558",
"w  c #373957",
"e  c #2D314C",
"r  c #193866",
"t  c #16316A",
"y  c #283967",
"u  c #303D6C",
"i  c #4B384D",
"p  c #663D54",
"a  c #29476B",
"s  c #384767",
"d  c #294976",
"f  c #364A76",
"g  c #385576",
"h  c #32526E",
"j  c #294565",
"k  c #584858",
"l  c #534A4F",
"z  c #745C4A",
"x  c #6C5252",
"c  c #7A6557",
"v  c #78624E",
"b  c #474866",
"n  c #485879",
"m  c #575876",
"M  c #534E6B",
"N  c #765968",
"B  c #6B556D",
"V  c #58627B",
"C  c #7B6668",
"Z  c #68667A",
"A  c #796777",
"S  c #767377",
"D  c #873D1F",
"F  c #894B31",
"G  c #884219",
"H  c #993546",
"J  c #8A584E",
"K  c #846B58",
"L  c #8B735C",
"P  c #937159",
"I  c #875A70",
"U  c #866766",
"Y  c #897466",
"T  c #957A66",
"R  c #876778",
"E  c #966B7A",
"W  c #88757A",
"Q  c #967879",
"!  c #936D69",
"~  c #A97875",
"^  c #AC6659",
"/  c #CB6D74",
"(  c #9C836A",
")  c #99867A",
"_  c #8A827A",
"`  c #A2896D",
"'  c #A68977",
"]  c #B8897A",
"[  c #AB9377",
"{  c #B5987C",
"}  c #B78469",
"|  c #B8A07C",
" . c #C3947C",
".. c #325185",
"X. c #4C5A89",
"o. c #516B8F",
"O. c #686985",
"+. c #776C85",
"@. c #7A7486",
"#. c #727691",
"$. c #54719D",
"%. c #887987",
"&. c #967A87",
"*. c #91728C",
"=. c #A47B87",
"-. c #A57B94",
";. c #B67D95",
":. c #9C5F81",
">. c #D37D86",
",. c #718FB1",
"<. c #76849D",
"1. c #7EA0C5",
"2. c #8C828C",
"3. c #8A8585",
"4. c #988588",
"5. c #98948A",
"6. c #998895",
"7. c #9C9497",
"8. c #8B8794",
"9. c #A68889",
"0. c #B58B86",
"q. c #A79589",
"w. c #B99788",
"e. c #A38C94",
"r. c #AB8C94",
"t. c #A48C9B",
"y. c #A78698",
"u. c #B68C97",
"i. c #A49295",
"p. c #A3939B",
"a. c #AC949B",
"s. c #AB9797",
"d. c #B4959B",
"f. c #BB9B9C",
"g. c #B79798",
"h. c #BCA587",
"j. c #B7A79A",
"k. c #ADA898",
"l. c #9291AB",
"z. c #A78CA2",
"x. c #AC9BA3",
"c. c #AA98A7",
"v. c #B49CA4",
"b. c #B79AA6",
"n. c #AA99B0",
"m. c #BCA2A5",
"M. c #BCA3AB",
"N. c #B6A5A8",
"B. c #BDB5A6",
"V. c #B8A7B6",
"C. c #B0AAB4",
"Z. c #92A4B1",
"A. c #C39C8B",
"S. c #C59987",
"D. c #C39B97",
"F. c #D39494",
"G. c #C4AC8C",
"H. c #C5A589",
"J. c #C8B18E",
"K. c #C4A39C",
"L. c #C8A897",
"P. c #D4AB9B",
"I. c #CAB493",
"U. c #CBB59A",
"Y. c #CDBA9B",
"T. c #C7B495",
"R. c #D1BC9D",
"E. c #D4B59A",
"W. c #D1A48B",
"Q. c #C69CA4",
"!. c #CD94A7",
"~. c #C3A3A3",
"^. c #CBACA3",
"/. c #C3A4AB",
"(. c #C9A8A9",
"). c #D4ABA8",
"_. c #CCBCA3",
"`. c #C5BCAB",
"'. c #CABDAC",
"]. c #C7B5A7",
"[. c #D3BDA2",
"{. c #D6B6A9",
"}. c #C6ABB4",
"|. c #C9B7B6",
" X c #D3BBBC",
".X c #DBBDBB",
"XX c #D7B8B4",
"oX c #D7A9B9",
"OX c #E3BBB6",
"+X c #E9AFAC",
"@X c #E29896",
"#X c #CBC1AD",
"$X c #C9C1AA",
"%X c #D5C2A4",
"&X c #D4C4AB",
"*X c #D9C6A9",
"=X c #CDC3B3",
"-X c #CDC4BA",
";X c #CBC6B8",
":X c #D2C4B4",
">X c #DCC2B5",
",X c #D1C5BA",
"<X c #DDC3BC",
"1X c #D4CABC",
"2X c #D8CAB8",
"3X c #D7D1BF",
"4X c #E2C5BC",
"5X c #E3C8BB",
"6X c #E0C9A9",
"7X c #D4C09E",
"8X c #B9B1C5",
"9X c #8DABC8",
"0X c #C8B8C3",
"qX c #D7BCC3",
"wX c #D7ADC1",
"eX c #E8B6CB",
"rX c #EDBCD1",
"tX c #E8B0C8",
"yX c #ABCADD",
"uX c #DCC4C4",
"iX c #D5CCC2",
"pX c #D9CEC3",
"aX c #D8C5C8",
"sX c #D6D1C4",
"dX c #DAD3C6",
"fX c #DCD6CA",
"gX c #DFD8CE",
"hX c #D7D3C9",
"jX c #DFD8D0",
"kX c #D3C6CA",
"lX c #E1C6C3",
"zX c #E4CBC4",
"xX c #E5CCCA",
"cX c #E8C9CB",
"vX c #E0DACF",
"bX c #E5D3CB",
"nX c #E8C9D5",
"mX c #F2C9DB",
"MX c #E2DBD2",
"NX c #E7D6D8",
"BX c #F6D6DA",
"VX c #F8CBCB",
"CX c #ECDAE1",
"ZX c #F5D4E3",
"AX c #FADCEB",
"SX c #F5DBE6",
"DX c #F6D1E2",
"FX c #FAE2EE",
"GX c #F5E2EA",
"HX c #FCE5F1",
"JX c #FEEBF5",
"KX c #FFEEF9",
"LX c #FFF1FC",
"PX c #EEE1E2",
"IX c #EBE1DF",
"UX c #BFC5B7",
/* pixels */
"CXcX0XkXHXFXFXHXGXGXGXGXSXGXSXGXSXSXAXZXDXDXrXmXrXmXZXGX0Xb.}./.b.V.!.y.*.*.&.u.-.z.*.< > < < < 1 ; . . . . . . . . . X # .   $ = > > $ $ : ; ; , , < i &.u.y.=.I *.-.z.z.}.b.}././.SXAXrXtXrXrXmXmXmXDXAXAXAXAXFXGXJXFXHXHXJXGXJXJXJXJXJXNXaXnXnXGXNXhXNXjXMXMX",
"mXaXqXNXJXJXFXHXHXGXGXGXGXGXGXAXAXSXAXZXDXmXmXrXeXrXmXHXSX0X}./.!.V.n.-.W &.I E =.u.y.i 1 > 1 1 1 1   X . . . . . . . 1 $ 1 = , > $ $ 1 1 1 1 , e i i N y.y.u.-.*.-.z.!.u.b.M.V.V.wXAXAXtXoXrXrXrXmXDXAXAXAXHXAXFXFXJXFXJXJXJXJXJXJXJXLXKXFXkXkXjXGXIXNXMXMXMXMX",
"CXnXnXGXJXJXFXFXHXFXHXFXHXAXGXFXFXAXAXZXDXmXmXmXrXtXnXZXHXqXM.b./.b.b.a.y.-.R &.y.u.d.A < > 1 1 # # . # $ $ . . . $ 1 $ $ $ = = , > > 1 > > < i p k N 4.r.y.-.:.*.y.z.y./.wX}.}.M.nXHXDXoXtXrXtXmXmXDXDXAXAXAXHXFXJXJXGXJXJXJXJXJXJXJXJXKXJX0X0XNXPXIXjXMXMXMXMX",
"nXkXNXKXHXJXJXJXHXHXHXHXHXHXGXGXFXGXAXZXDXmXmXrXrXtXwXnXHXnX}.}.b./.b.z.d.y.y.*.-.-.y.e.2 > , 1 $ $ $ $ $ > $ $ ; $ $ ; 1 , - , < < e < < i l N R &.4.f.d.d.&.N :.-.-.Q.}./.}.}.}.ZXAXrXtXtXtXrXrXmXDXDXAXFXAXFXFXGXJXJXJXJXJXJXJXKXKXJXKXJXqXkXNXGXGXjXMXMXvXMX",
"aXxXGXJXJXJXKXHXJXJXHXJXJXFXFXFXFXAXAXDXDXDXmXrXeXtXoXtXAXAXwXV.}.0XM.b.z.-.-.I I -.d.t.k < < ; & & & & & & ; , ; ; 1 , > , , , i e i l x c U Q Q 9.f.d.u.d.*.B B :.-.n.V.wX/.}.qXHXDXeXwXtXtXmXmXmXDXDXAXAXFXFXJXJXJXJXJXLXJXJXJXJXKXKXKXJXCXkXdXIXGXNXMXNXvXMX",
"qXdXLXJXJXHXKXFXHXJXJXHXHXJXFXFXFXFXAXZXDXDXDXrXrXtXtXtXmXHXeXV.wX}.}.M.n.*.:.B I -.r.d.A < e 0 0 , ; ; , ; ; 0 , , , , , , i 2 i l x C Y ! 9.0.g.g.).f.d.y.*.I N R *.n.e.0XnXV.wXAXmXwXwXtXrXrXmXDXZXAXAXAXFXFXGXJXJXJXJXJXLXLXKXJXJXKXKXKXCXkXaXIXPXMXMXMXgXMX",
"0XkXKXHXJXJXKXJXJXJXJXJXJXHXFXHXHXAXAXAXDXmXnXmXeXeXtXoXrXHXSX0XM.0X}.b.z.-.I B A :.y.d.&.i i s w w e e w 0 e w e e e 0 < e i k N C W Q 4.' w.L.).).XXD.u.y.*.R A R -.b.b.wXmXnXwXAXmXwXoXtXrXrXmXmXDXAXAXFXFXHXGXJXJXJXJXLXJXJXKXKXKXJXJXLXnX|.nXPXGXNXMXMXMXMX",
"0XnXLXJXKXJXJXKXKXKXJXJXJXHXHXHXFXHXAXAXDXDXnXmXrXeXtXoXtXAXSX}.0XCX/.y.z.:.+.I R *.y.d.a.@.m M n M b b w s w w w i e 0 2 p B N R &.9.9.0.f.~.^.).{.XXQ.b.b.z.R R *.6.V.}.}.}.b.DXAXtXwXtXtXtXmXmXmXDXAXAXAXFXFXJXJXJXJXLXJXLXJXJXLXKXJXJXLXkX0XkXNXIXNXMXMXvXvX",
"nXGXLXJXHXLXJXKXKXKXKXJXJXJXHXHXHXFXAXAXSXZXmXmXrXrXtXtXtXmXDXtXnXkX}.}.b.-.:.+.*.-.d.u.M.6.O.O.Z Z m m b b b m b b i i k B C Q 4.r.q.w.f.K.^.].XX<XXXd.a.z.z.R I y.z.t.b.qXoX/.DXrXtXtXtXtXeXrXmXmXSXSXAXHXHXHXJXKXKXJXLXJXJXLXKXKXKXJXHXKXhX0XNXPXIXMXMXMXMXMX",
"0XCXJXJXKXKXJXJXKXKXKXJXJXJXJXFXFXFXAXAXAXZXDXrXrXrXtXtXtXtXDXnXz.0X}./.b.y.-.B I y.u.r.z.*.+.+.O.Z Z V m m m B B m B B N R Q 4.u.w.g.f.^.].{.XXXX.X.X~.u.9.-.R R &.b.wXwXqXb.wXmXrXtXtXtXtXrXmXmXDXSXHXAXHXHXHXJXJXKXKXJXLXLXJXKXJXKXJXKXLXCXnXNXIXCXMXNXMXMXvX",
"0XCXLXJXKXJXKXKXKXKXKXKXJXJXJXHXHXFXFXFXAXZXDXmXrXrXtXtXwXtXmXmX}.}.wXb.b.z.-.R R -.y.9.t.*.#.#.@.+.+.O.O.O.O.+.+.A A A W Q 9.q.g.D.^.^.{.{.XX.X<XqX.X(.f.y.z.b.E *.d.}.qXoX/.wXtXtXtXtXrXtXrXrXDXDXAXAXAXHXHXHXJXJXKXKXJXJXKXKXKXKXKXJXJXJXNXnXNXIXNXNXMXMXvXMX",
"}.hXJXJXKXJXKXJXKXKXKXKXKXJXJXHXHXFXFXFXAXZXDXmXrXrXtXtXtXtXeXnXwXV.eXwXwXc.*.R *.-.&.6.z.%.%.#.@.@.%.@.@.@.@.@.*.%.W Q 9.e.d.f.K.).^.{.{.'.|..XaXuXuX|./.u.z.u.I *.b.b.}././.oXtXtXtXtXtXrXrXmXDXDXAXHXHXHXHXJXJXJXKXKXLXKXJXKXKXKXLXJXLXGXaXNXNXNXIXMXMXvXvXMX",
"0XNXKXHXKXJXKXKXKXKXKXJXKXJXJXJXHXHXHXFXAXAXDXmXrXeXeXeXtXtXwXtXtXb.}.wX}.y.*.E c.z.=.-.6.*.%.%.%.%.%.%.%.%.%.%.*.&.=.e.d.f.m.^.(.).].).{.&X.X,X:XuX5X<X.X}.(.f.=.&.d.Q./.XXu.(.tXtXeXeXrXrXrXmXDXZXAXAXHXHXJXJXKXKXKXLXLXLXKXKXJXKXJXKXKXGXNXNXNXIXNXMXMXvXvXMX",
"nXCXKXHXJXJXKXLXKXKXKXKXKXKXLXJXHXHXHXFXAXAXDXDXmXnXeXeXeXtXtXtXoXb.!.V.b.a.&.R y.z.-.6.6.%.%.%.8.*.8.6.8.l.6.6.&.e.r.d.f.m.m.^.(.).XX{.XX*XXX<X<X<X<X.XXXXXoXb.r.r.}.}.M.wX}..XtXtXeXrXrXmXmXDXAXSXAXHXHXHXJXKXKXKXKXLXJXLXKXLXKXKXKXJXJXCXnXNXBXIXNXMXfXfXfXMX",
"nXjXGXKXLXKXKXKXKXKXKXKXLXLXJXJXJXHXHXFXHXAXAXDXDXnXrXeXtXtXtXtXoXu.wXM.b.M.4.&.*.y.6.6.8.6.6.6.l.6.8.6.l.6.z.t.z.d.f.~./.]./.(.}.XXXXXXXXXXXX>X.X>X>X5X5X<X>X}./.}.}.|.}. XcXtXeXrXrXrXmXmXmXDXAXAXFXHXHXJXJXJXKXKXKXLXLXJXJXJXKXJXJXJXJXCXNXPXIXNXMXbXvXvXvXMX",
"NXnXGXJXJXLXJXLXKXKXKXKXLXJXJXJXJXJXHXFXHXAXAXDXmXmXmXrXeXtXtXtXtX}.oXM.d.v.a.&.-.&.y.6.8.6.6.6.6.6.p.l.t.p.p.c.d.b.M././.(.).|.|.|.XXXX.X>X>X<X4X<X>X5X5X<X4X<XXX).|..XXXeXqXlXeXrXrXmXmXmXZXSXZXAXFXHXHXHXJXJXKXKXKXKXLXLXLXJXKXJXKXJXHXNXNXNXIXNXMXbXvXvXvXMX",
"NXnXCXJXKXKXKXKXJXKXLXKXLXKXKXJXKXJXHXHXFXFXAXDXDXDXmXrXrXrXrXwXqXoX/.v.a.r.r.4.e.6.e.6.6.6.t.7.7.p.p.p.c.c.c.N.N.M.M.}.(.}.}.|.XXXX.X.X>X>X<X<X<X<X4X4X4X4XlX5X<X<X<XpX5XlXlXcXcXcXnXVXDXZXSXZXAXAXHXHXHXKXHXKXKXJXKXLXLXJXJXKXLXKXJXJXGXCXCXIXIXIXjXjXMXMXjXjX",
"CXnXCXHXKXJXKXLXLXLXKXKXKXKXKXKXKXKXJXHXFXFXAXAXDXDXmXnXnXrXrXeXoX(.f.r.e.e.e.e.e.e.7.p.7.p.p.z.c.l.n.c.x.n.N.N.M.M.].(.|.).XXXXXXXX.X.X>XqX<XuXlX4XlX4X5XlX5X5X2X5X5X<X5XlXlX4XcXcXmXnXBXSXSXGXFXFXFXHXKXKXKXKXLXKXKXLXLXKXKXKXKXKXKXGXNXjXIXIXMXjXjXIXMXMXjXjX",
"NXNXCXSXKXKXJXKXKXKXKXKXLXKXKXLXKXJXJXJXHXHXAXAXAXDXDXDXmXnXnXwX(.m.u.q.e.i.i.i.e.i.t.p.7.p.7.c.c.x.c.N.x.C.V.M.V.}.}.|.XXXXXXXXXX X<X.X4X.X4XuXlXlXpX5X5X5X4X5X5X5X5X5X5XzX5XlXzXcXnXBXZXZXSXAXFXFXHXJXJXKXKXKXLXLXLXLXKXKXKXKXKXLXJXPXCXIXPXIXjXMXjXjXMXgXjXjX",
"NXCXCXPXJXLXKXKXKXJXKXLXKXLXKXLXKXJXJXJXHXHXAXGXAXDXZXZXDXnXeX0Xm.d.r.r.i.r.i.i.i.p.p.p.c.p.c.x.x.x.c.V.N.N.M.V.}.|.oX|.|.XXXX.X>X.X<X<XqXuX4XlX4XlXzXzXzXlX5X5XlX5XpX5X5X5X5XlXlXzXNXBXZXSXSXAXFXFXHXJXJXJXKXKXLXJXKXKXKXKXJXJXJXGXGXIXCXPXIXjXMXjXjXjXgXjXjXjX",
"CXPXCXNXCXKXKXJXKXKXKXKXLXLXKXKXKXKXJXHXHXHXHXGXAXSXSXZXDXnXqX}.g.i.r.r.r.i.i.i.p.i.x.p.s.x.x.N.N.n.C.N.B.V.}.|.}.|.|.XXXXXXqXOX.X.X<XuXlX4XlXlX5XzX5XzX5XzX5X5XzXzX5XzXzX5XzX5XlXzXxXBXBXSXAXAXGXHXHXJXKXJXKXJXKXKXKXKXKXKXJXJXHXGXCXNXNXNXjXjXMXMXMXvXgXvXvXMX",
"NXIXNXjXCXFXJXJXJXKXKXKXLXKXLXLXKXKXKXKXJXJXHXHXFXSXSXBXnXnX0XM.d.r.9.i.s.s.i.s.s.p.s.s.x.x.v.x.N.N.M.M.V.V.|.}.|. X|.qX.X.X.XqX<X<XlX4XlXlXlXlXzXzXzXzXbXzXbX5XbX5XbX5X5X5X5X5X5XlXxXNXSXSXFXFXFXHXHXHXHXKXJXKXKXKXJXJXJXJXHXGXGXCXCXjXIXNXIXIXMXMXMXMXgXvXvXvX",
"hXjXCXIXCXGXHXJXJXJXKXKXKXKXKXKXKXKXKXKXJXHXHXHXFXGXSXCXNXqX}.d.q.i.r.r.s.s.s.x.s.s.x.v.N.N.v.N.M.N.V.].}.|.|.|. X XqX X.XqX.X.XuXlXlXlXuXlXzXzX5XzX5X5XzXbXbXbX5XVXzX5XzX5X5X5X5X4XlXbXBXCXFXFXFXFXFXJXHXKXKXJXKXJXJXJXHXHXGXGXNXjXNXnXNXIXNXjXMXMXMXvXvXMXMXvX",
"kXhXNXCXCXNXSXHXHXJXKXHXKXKXKXKXKXKXKXKXJXJXHXGXFXGXSXZXnX XM.d.r.s.g.s.d.s.s.x.x.v.v.N.v.N.m.m.M.M.B.}.}.|. X|.qX XqXqXqX.XlXqXuX4XlXlXlXuXzXxXbXbXbXbXbX5X5XbXbXzXzXzXzX5X5X5X4X5X4XxXNXBXSXFXFXHXFXJXHXHXKXJXJXKXGXJXHXSXCXGXIXNXNXjXjXjXjXjXvXvXvXMXMXMXvXgX",
"0XiXjXNXNXNXNXCXHXHXHXKXKXKXKXKXJXJXJXKXJXFXJXFXFXFXSXNXqXXXb.d.s.u.s.d.g.s.d.g.v.g.v.m.M.M.M.M.B.}.}.|.|. X X XqX XaX XqXuXlXlX.XlXlXlXlXxXxXxXxXxXxXzXzXbX5X5XbXzXzX5XzX5X5X5X5X5X5X5XcXBXSXFXFXFXHXSXHXFXFXFXJXHXFXFXCXnXCXCXIXIXIXMXMXMXvXvXMXvXMXvXMXMXMXvX",
";X;XkXhXMXNXNXNXCXGXFXJXJXHXKXKXKXJXJXHXHXJXJXAXFXFXSXnXqX}.g.d.s.g.u.g.d.g.v.g.v.v.m.M.M.M.(.(.`.}.|.'. X X X0XqX,X XuXqXuXqXlXcX4XlXxXxXuXlXxXxXzXxXbXbXbXbXbXzXzX5XVX5X5X5X6X5X5X5X5XcXNXPXSXFXPXFXHXFXFXHXGXCXSXnXkXkXnXkXjXMXMXMXvXMXvXvXvXMXvXvXMXMXMXMXMX",
"iX;X-XiXdXjXNXNXCXSXGXSXGXJXKXHXHXJXJXHXHXFXGXFXAXFXBXcX X/.d.s.d.d.d.d.g.d.g.m.m.m.m.~.~.]./.}.|.|.|. X X X,XqXaXqX<XuXuXuXuXlXlXxXlXlXxXxXxXxXxXxXbXbXVXzXbXxXbX5XbX5X5X5X5X5X>X5X<X<X<XxXNXBXCXSXCXSXSXSXmXNXnX0XkXxXkXkXCXnXMXgXgXgXvXvXvXvXvXvXvXMXMXMXMXvX",
";X;X-XiXaXxXbXNXCXCXNXNXCXGXHXHXJXHXAXFXHXFXGXHXAXGXNX X|.M.g.g.d.d.d.d.g.v.v.f.m.~.~././.}.|.oXXX X X X,XqX,XuXqXuXuXuXuXuXlXuXqXaXlXlXuXcXxXcXxXxXxXxXbXbXzXxXzXVXbX5X5X5X5X>X5X>X>X>X<XlXxXbXNXBXNXnXnXaXoX0XaXqXqXaXnXkXNXNXjXgXgXgXgXvX3XgXvXvXMXMXMXMXMXMX",
"-X-X1X1XiXaXfXNXNXNXjXnXnXaXNXZXDXHXFXAXAXSXFXSXSXCXxX}.(.f.g.g.v.d.d.v.f.v.v.f.m.~.M./.}.|.XX X X X X,XuX XiXqXaXaXuXuXuXuXuXuXxXlXcXxXuXcXcXxXzXbXxXzXxXxXzXzXzXzXzX5X5X5X5X>X>X>X5X>X>X4X5XzXnXxXcXcXqX X X X|.qXqX XuXaXbXaXhXhXfXfXgXgX3XgXvXvXMXMXvXMXMXvX",
";X;X1X1X,XiXiXaXxXNXnXkXkXqXaXqXaXnXnXCXCXCXZXCXCXNXqXm./.f.g.d.g.g.g.g.f.g.f.m.~.M./.|.}.|.XX|.,X XuXuXaXuXiXuXaXaXaXuXaXuXcXuXuXlXuXcXxXuXuXxXxXzXxXxXzXxXzXzXcX5XlXlX5X5X4X4X>X>X>X>XOX>X>X<X,X<XqX<X,XqX.XqX|.].|.].|.dXMXdXpXpXhXfXgXgXgXgXvXvXMXMXMXvXvXvX",
"#X;X,X1XiX,XiXkXaXNXnXaXnXkXaX0XnX0X0X0XaXNXnXNXnXaX}.q.j.v.v.d.d.d.d.d.v.g.m.m.M.~.].}.|.qX X X XuXuX,XuXaXuXaXaXaXuXuXaXxXcXuXlXuXlXlXuXlXcXuXlXlXlXlXzXlXzXlX5XlX<X5X5X4XOX>X>XOX*X>X*XOX&XXX|.XX|.|.:X(.f.g.m.i.Q 9.'.bX1XpXiXiXdXfX3XgX3XgXvXvXvXMXMXMXMXMX",
"#X=X,X-XiX,XiX,XiXiXkXNXaXaXaXkX0X}.nXkXqXjXkXxXaX Xg.&.s.g.s.g.v.d.d.v.g.v.m.m.M./.}.|.|. X X XqX,XuX<XuXuXaXaXxXaXuXaXuXuXaXaXuXxXaXlXlXuXuXcX4XlXlX4XlX5X5X4X5XlX<X<X4X<X<X>X5X>XOX{.XX{.{.{.{.^.^.^.K.9.Y z z v c 4.].dXdXiX1XaXdXfXgXgXgXgXvXvXvXMXMXMXvXvX",
",X,X,X,X-XiXiX-XkXiX1XiXiXiXkXqXkX0XkXqX XuX X X;X|._ C 9.s.q.s.d.a.a.d.a.v.b.v.V.(.}.|.|.0X X X,XkXqXuXuXaXuXuXaXaXxXaXeXaXaXaXuXaXuXaXuXuXuXlX.X.X.X.X<X2X.X>X<X>X.X.X.X>XOXXX>X>XOXOX{.[.E.{.U.P.L.L.w.[ ) v 5 v T q.$X=XfXfX,XpXhXfXfXgXfXgXvXvXvXvXMXvXvXMX",
":X,X,X,X-X1X-XiXiX1XiXiXiX,XiX-XkXkXaXaXuX,X-X|.|.`.C x 4.v.v.s.s.p.a.a.d.z.v.M.M.V.}.8X|.wX X0XqXkXuX XuXuXaXaXaXxXcXuXaXuXaXkXkXkXqXkXqXqXqXqX.X.X.XXXXXXXXX X X.X.X.X.X.XOXOXXX{.{.{.{.{.{.P.E.P.J.L.H.w.[ v 5 v L k.2XdXsXhXsXsXdXhXgXvXgXgXMXvXvXMXvXMXvXvX",
":X,X,X,X-XkX1XkX1X1X1X;XiX,XiX-XkX1XiX1X,X,X;X;X;X|.4.x 9.d.r.i.a.t.p.a.z.b.b.b./.}.}.wX0X|.0X0XqX0XaXqX<XuXuXaXaXaXqXaXuXaXkX0X0XqXqXqXqX X XoX XwX0X0X|.oXwXoXXX).|.{.XXXXXXXXOX{.*X{.XX{.].^.P.I.L.L.L.A.q.c 5 z _ UXsXsXhXhXhXdXfXfXMXMXMXMXMXMXMXMXMXvXMXvX",
",X,X,X,X-X1X;X-X-X1X1X1X-X,XiXkX1X,X,X,X X;X;X|.|.;Xj.N Q d.r.s.e.e.e.t.d.z.c.c.M.V.V.}.}.wX0X0X0XqX0XkXaX,XkXaXuXaXaXaXkXqXkXkX-X0X0X0X|.|.|.}.}.}.}.}.}.}.}.}.(.].{.).).{.].{.{.{.XX{.{.{.{.{.P.L.L.L.H.h.' v 5 z _ UXgXhXjXgXfXfXvXvXgXvXMXMXvXMXMXMXMXvXMXvX",
"=X:X;X:X-X-X-X1X;X1X3X;X,X-X1X1X3X=X;X:X-X-X;X;X;X;X|.Q ) i.i.9.4.i.e.i.p.p.c.c.n.n.n.8X8X}.0XwX0X0X0X0X0XkXkXkXkXkXkXkX-XkXkX0X0X0X0X|.|.|.}.}.}./.V./.!.!.V./.~.~./.^.K.f.H.D.L.P.P.E.{.E.{.U.I.L.L.L.h.g.) z 5 l < 5.jXhXiXbXfXfXgXgXgXgXMXMXMXMXMXMXMXMXMXMX",
"=X=X=X,X1X-X-X-X1X1X;X3X1X1XkX-X;X3X2X;XqX-X-X;X|.;X=X9.Q q.p.4.%.&.2.8.6.l.7.c.n.n.8X8X8X8X8X8X8X0X0X0X0X0X0X0XkX0X0XkX|.0X0X0X8X0X0XV.}.V.M.V.V.v.b.b.n.z.b.;.d.d.r.q.u.w.w.w.w.w.w.L.E.).E.^.^.L.L.L.H.h._ 5 4 < 1 S hXfXxXxXfXdXsXfXvXMXMXMXMXMXMXMXMXMXMXMX",
"=X#X;X;X1X;X-X;X1X;X;X;X;X1X1X;X2X&X=X,X-X-X;X-X;X=X`.s.W 7.6.@.+.@.@.2.l.l.8.l.l.l.n.8X8X8XV.8X8X}.|.0X0X0X0X0X0XqX0X-XUX|.|.|.8X8XV.V.C.n.n.c.n.n.n.z.-.*.-.:.R I I U E Q ~ ! P ~ T ~ A.^.^.).P.L.L.H.H.h.Y 4 < + < 7.|.qXbXdXaXsXsXdXvXMXMXMXMXMXMXMXMXMXMXIX",
"#X=X=X,X1X;X-X1X1X1X;X;X1X1XiX1X=X=X;X,X-X-X;X;X=X$X'.k.3.6.m i b b b V Z Z O.#.l.l.l.l.n.n.9Xn.8X8X8XV.8X0X0X0X0X0X0X0X0X8X8XV.}.8XV.n.n.n.n.c.l.*.%.O.B b X.u M B B A R E R J N U U J ! ~ 0.w.P.A.A.H.S.w.U 2 < < C M.]. XpXdX1XsXfXfXgXgXMXMXMXMXIXMXMXMXMXMX",
"=X=X=X,X-X-X-X-X1X1X;X1X;X;X1X;X;X;X;X;X;X|.;X#X;X$XUXUX5.V e < e e h h w w e s b m O.8.<.Z.l.Z.n.n.8X8XV.0X8X8X8X0X0X|.V.8XC.C.V.n.n.Z.n.l.l.#.M w w q y u ....y y X.X.M B B :.R I N J U ~ ~ ~ D.D.S.W.S.{ c < 2 4 5.K.+X).>X1XsXhXjXjXjXjXMXMXIXMXMXIXjXMXMXIX",
"#X#X=X=X-XiX-X;X1X1X3X;X;X3X;X1XiX;XUX`.;X|.;X;X$XsX;XS l l , j j j e : : : : : 0 0 e j b M V @.l.n.l.n.C.8Xn.8X8X8XV.V.V.V.C.n.n.n.n.l.l.$.X.u u u u u t u t ..t u u u t w 0 w k x U U U U Q ' ~ D.D.H.h.w.Y 4 2 Y q.D.^ >.{.1XsXhXgXhXjXjXIXMXMXMXMXjXMXMXjXjX",
"$X$X'.;X,X,X,X,X;XiX;X1X;XiX1X;X0X|.B.|.iX;X;X;XsX3.4 1 1 7 : : : : 9 9 9 : 9 j 9 7 % : : : ; w M O.l.l.n.C.n.8XC.8XC.n.n.n.n.n.n.l.l.#.n b b n M u 8 6 8 t ....d t t u M u 8 0 , $ , i l B A %.9.j.K.j.h.w._ 4 l ' D.~ 3 / 5X1XsXhXjXjXjXjXMXMXMXMXMXIXjXIXMXjX",
"$X#X=X=X,X-X,X,X;X1X;X;X;X;X;X;X-X].|. X;X|.UXC.l # X 1 : : 9 9 h o.o.$.,.,.1.,.9X,.o.g h j 7 7 u i M *.l.z.n.C.8XV.V.V.N.x.n.l.l.1.o.b m X.w q q q u X.X.X...X...u y u u b b M b b i = X   > < 4 C _ q.k.q.C c ) w.W.H 3 / 5XiXsXhXjXjXjXjXjXMXIXMXMXMXMXMXjXjX",
"#X$X:X,X,X-X,X,X-X,X,X-X;X;X;X1X2X'.XX;XUXUX5.< # 1 # : h n V ,.1.yXyXyXyXyXyX9X1.1.,.$.o.$.g j q b k B *.l.n.Z.n.n.n.v.-.6.8.8.#.X.X.O.s w b b M X.O.X.t y y 8 8 8 w w u b B B m %.A N x < X   . . . + < 4 4 Z q.w.W.^ D / OXjXsXfXgXgXjXjXMXjXMXMXjXMXMXMXMXjX",
"=X=X=X:X,X X,X,X-X,X,X-X;X;X;X;X|.,X|.-XUXo.: X : e h V V V #.9XyXZ.1.1.o.X...g h y a t d d g g g f m M b Z #.8.<.l.6.%.*.*.O.m d o.O.w b M m Z X.X.u 6 * * * * * * * * - 0 i b p B B A A U i   1 # . X X X . l e.w.@XW.H >.xX1XsXfXhXgXjXMXMXMXMXMXMXMXjXjXjXjX",
"=X=X:X=X,X,XuX,X,X-X;X;X;X`.;XUX;XUXyXC.g : : j h j S k.@.B Z #.#.o.h o.s q 6 % % % 6 6 6 9 9 d ..X.X.X.M q y f f s s b X.m d t $.X.7 m B B B m b 8 8 t 6 u q 8 8 u 0 * * * 6 - k k N C N I U l # $ . i l w X k 9.).P.@X/ W.5XhXhXhXgXgXgXjXjXjXMXMXMXjXgXgXjXjX",
"&X&X#X=X-X,X,XiX,X-X;X;X|.UX|.B.UXUX8.h 9 9 j j e Z.UXUXk.W A @.#.S h : 6 % * 6 u r 9 6 6 6 6 t d ..o.X.y % t o.,.o.u 6 * 6 d $.g 6 n Z B B M M u t $...d X.6 * * X.u 6 0 & * - - - i p N C U C > # < Z S l X l u.F.@XP.W.+XzXiXhXfXgXfXjXjXjXjXgXMXjXMXhXgXgXjX",
"#X=X:X=X,X-X,X,X-X-X-X|.;XB.|.;XZ.e 6 9 t r r 9 7.UXUX`.B.W %.+.Z b 0 6 @ % f ,.,.o.r ....a t 6 t ..d ..d % 9 d $.$.t % * 6 ....8 u Z B B B M w q $.1.d g j @ 7 y 6 y 8 w i *     @ - p I U U E x   $ X X X X p H ^ >.@XP.OXhXhXhXfXfXgXfXjXfXfXMXMXMXfXMXMXfXfX",
"$X=X'.:X-X,X;X,X;XkX-X;X;X;X;X-X3.# 9 9 t r 9 V C.;XB.`.`.5.%.%.M e * @ * u <.,.,.d r ..9 9 ..8 t d ..t r 9 % 9 ..d 9 % * 6 t t 6 m Z k k k M w 1.9Xl.X.o.1.X.7 6 6 8 q X.M i * - - i p U I U ! W = X = X O p H H H / >.+XOXaXfXhXdXfXfXfXMXMXfXMXfXvXMXvXfXfXMX",
"&X=X=X=X-X-X,X|.-X-X;X-X|.#X;X;XZ.1 j ,...r 7 5.;XB.`.UX'.k.2.%.Z e # * e $.1.1.,.d r X.$...t 9 t u $.r r 6 # % 9 9 6 6 * 6 t 9 e Z B l k k M b 8X9X9X$.q $.f 8 8 f u w M b - i 2 2 p N K U ! Q Y < . X 5 u.F.J H H H >.@XOXdXkXhXhXhXfXMXfXfXMXMXfXMXfXfXMXMXfX",
"=X#X#X:X-X-X-X;X-X;X|.;X;X`.B.;XUXe 9 g d 9 j UXB.B.|.#XB.B.4.%.3.m 0 , b O.<.,.,...r o.$.d 9 t t ..$.f : 6 ; b X.l.l.n.#.y 8 6 w R x p p k p m ,.l.1.,.y q u u u q 0 w p i p B N x x v U ! T Q 4.2 X < u.XXF.^ H / ^ / +XOXhXsXhXhXfXfXfXMXfXfXfXMXfXMXfXfXMXfX",
"=X'.'.=X,X=X-X-X-X-X-X;X;X#X#X|.UXl 1 # t 9 j C.B.$X`.B.B.B.i.4.%.@.M w m V O.<.1.,.g y d f f 8 j n n g 6 % w @.#.l.l.n.0Xl.6 * i R N k k x i w b M o.O.n q y 0 8 e b k k U &.=.=.~ ~ Q ~ ' ' ~ Q 4 X N ).).+X/ / / / >.+XOXaXkXdXxXfXfXMXMXfXMXMXfXfXjXMXfXMXfX",
"'.'.'.=X-X,X-X,X-X,X-X X;X;XB.`.3XZ.3.n 9 9 w UX$X$XB.UXUXB.i.6.*.6.A S +.Z +.#.#.<.#.h q q 7 u s s M X.q # M S %.l.c.b.b.8Xu * i R I x x B B B O.Z Z Z Z O.O.O.O.B N *.y.d.9.0.0.~ 0.0.w.w.' ~ 4.4 O ) ^.P.P.@X>.>.>.@X+XOXsXdXhXfXfXMXfXMXMXfXfXMXjXfXfXfXfXjX",
"'.'.|.=X:X,X,X,X-X,X;X=X=X`.`.B.UXUXUXyXn % e B.B.B.`.`.`.B.i.9.p.%.W &.%.R A Z Z Z O.V V O.O.X.m V O.O.s % M S %.7.s.d.r.V.*.@ 2 R A N B B A +.+.%.A @.@.+.*.+.%.%.=.=.9.u.0.] 0.0.S.S.g.0.9.=.&.4 O w.).E.+XF.@X>.@XtXOX.XdXdXhXfXfXfXfXfXMXMXMXfXfXfXfXfXfXMX",
"|.'.'.=X,X-X X,X,X,X-X;X,X`.$XB.$XUXUXUXZ.: . k.B.j.$XB.B.|.s.i.9.4.4.Q %.Q %.@.@.S +.@.#.+.+.Z S Z +.#.w # Z %.2.p.s.s.r.t.*.- - *.R R C N A +.*.#.%.%.%.*.:.*.&.&.r.9.0.0.0.] ] F.F.A.A.0.] 9.=.+ 4 {.E.E.E.+X!.@X+X+XOX>XdXsXhXhXfXfXfXMXfXMXfXMXMXfXMXMXfXfX",
"=X=X=X,X,X|.:X,X:X:X-X|.=X=X$X$X$X$XUXUXUXM X 3.UXB.$XB.B.|.s.q.i.4.) ) &.&.Q &.%.%.2.%.%.+.+.O.+.S +.#.s % +.@.3.7.j.g.r.y.&.2 O W Q ! U N B %.*.#.*.%.%.*.=.Q ' =.0.0.9.~ 0.0.F.D.D.D.0.0.0.0.W O U XXE.P.E.P.E.OXOXOXXX<X3XdXhXfXfXfXfXfXMXfXMXfXfXfXfXfXjXfX",
"'.|.=X:X,X,X,X,X=X-X:X=X=X=X=X$X`.`.$X$XsX5.# l B.B.B.Y.`.].N.i.i.9.4.4.4.&.4.&.%.%.&.%.%.+.+.%.@.+.+.#.w & +.3.7.N.]. XXXb.-.i   x r.q.Q J I C +.*.%.%.*.&.=.=.=.~ ' =.9.0.D.Q.^.).D.A.0.D.' g.N O f.{.{.{.^.E.{.OXOXeX.X2X3X3XhXfXfXfXfXMXfXMXMXfXfXMXjXfXMXfX",
"`.#X=X=X:X=X=X,X,X=X=X=X=X;X#X$X;X#XB.$X`.;Xi $ 5.UX$XT.U.].N.i.i.e.4.4.4.4.&.&.8.&.%.%.%.@.%.%.%.#.+.*.w 7 +.4.v.|.uXlXxXqX/.C O 2 g.D.A.0.~ E R R *.*.*.&.=.=.=.0.9.0.u.D.(.).{.L.D.A.0.S.w.g.- l OX^.).6X{.+X{.OXOX4XuXuX3X3XxXfXfXfXMXfXMXfXfXfXMXfXMXfXfXfX",
"#X`.#X=X=X=X-X-X=X,X,X=X;X;X=X=XB.#XB.$X`.1X5.@ S B.B.$XB.B.k.p.i.7.e.9.4.6.6.4.6.&.8.%.%.*.%.%.%.%.@.#.w 0 S i.M..XqXuXcXNXeXv.2 O Q Q.K.).Q.f.y.y.6.6.t.y.9.=.0.u.f.K.).).).).).D.u.w.F.0.F.! O 9.{.).{.{.+XOX+XOXOXeX<XdXpXdXhXfXfXfXfXMXMXfXfXMXfXMXMXMXjXfX",
";X`.$X;X#X;X=X=X,X,X=X,X-X;X1X=X;X#X'.$XB.#XUXl 1 k.UXT.$Xk.k.s.i.i.e.6.e.6.-.6.6.&.&.8.&.6.*.%.%.%.@.8.0 0 &.a./..X.XVXxXnXxXaX*.O 4 (.~.).^.{.XX}./.}././.~.~.Q.).XX}.}.).).).K.D.A.g.0.K.f.+ x .X{.{.{.+XOX+X+X>X5X4XuXdXbXdXfXfXjXfXfXfXMXMXMXfXfXjXfXMXfXfX",
"#X#X$X;X;X`.=X=X,X=X;X,X;X,X;X=X1X`.#X$XB.;XkXC.1 l $Xk.$XB.j.7.p.i.y.y.y.9.e.6.6.6.6.6.6.&.6.&.*.%.8.@.# i e.f.(. XqXcXcXbX<X X}.l O E XX^.^.P.^.).XXXX X|.|.XX|.XXoXXXXXoX).K.D.A.D.D.Q./.l 2 ).{.{.[.{.{.OX>XOX4X5XcXuXfXbXpXhXfXjXfXfXfXMXfXfXMXfXjXfXfXfXjX",
";XUX`.#X#X;X=X=X=X=X,X,X,X1X;X=X;X=X#X;X-X;X|.-XS 1 Y UXT.k.$X5.r.r.r.9.=.-.9.9.e.4.6.4.6.4.&.6.6.6.8.k $ Z u.f.)..XeXcXcXNX5X'.:X3.o < s.(.).^.^.).XX.X.X.XXXXXXXXX).XX).(.D.D.F.w.D.D./.U O 9.OX).{.E.{.>X>X5X5X5XpXxXxXhXdXfXfXfXfXjXfXMXMXfXjXfXfXfXMXfXjXfX",
"#X$X$X#X=X=X=X-X-X-X,X,X,X;X,X=X|.1X$X=X-X;X;X;XhXh 1 5.UX$XB.k.a.r.r.r.e.9.e.4.4.9.9.6.6.4.6.&.*.8.%.= , 8.d.Q.}..XlXcXnXVX5X2X X Xx X 4 v.(.K.Q.Q.).).{.XX.X{.XXXX.XXX).K.D.D.D.F.Q.Q.I O *.qX).{.{.%X&X*X>X5X5X5X<XaXjXaXaXbXfXfXMXfXMXfXfXfXMXjXfXfXfXfXMXfX",
"#X`.#X`.'.=X|.=X=X&X=X=X;X1X;X=X=X$X$X=X=X=X=X;X;XUXl 1 5.UXk.k.p.i.r.y.=.4.9.-.9.=.r.4.6.6.*.-.*.z.k   k p.d.Q.oX.XcXcXcXNXzX>X.XeXv.2 O 2 Q./.Q.Q.Q.~.).XXXXOXXX{.XXoXL.D.u.D.!.Q.u.i O E nX).OX[.[.{.4X{.).<X6X2XdXdXdXdXfXfXfXbXdXgXbXfXvXbXfXfXgXgXgXgXgXvX",
";X#X#X#X'.#X:X:X=X=X=X=X;X&X;X1X$X$X=X=X,X-X;X,X`.;X$XM > S C.C.i.t.e.r.r.-.=.=.=.9.9.y.y.t.6.l.l.B . < %.i.a.Q.).tXcXNXcXcXlXOX X.XqXW + O 2 =.b./.Q.!.f.~.^.).oXXX).f.D.Q.D.F.=.N - 2 d.lXXX).{.{.[.OXOX{.^.^.3X3XdXbXdXbXfXfXfXdXdXdXdXfXdXfXfXvXgXgXdXdXfXfX",
"$X#X#X#X=X'.=X'.=X=X=X=X=X&X=X=X$X=X=X=X=X,X:X,X;X-XkXUXS < l 3.p.x.z.e.t.y.-.-.=.y.-.6.e.6.z.*.M   = @.i.u.~.(.XXqXzXbXbXVX4XOX>X{.OX).I 2 - - N :.c.!./.(.^./.}.Q.!.;.u.=.I p - 2 I oX.X).).6X{.*XOX{.OX5X2X5X3X3XgX3XfXfXgXfXbXdX3XpXdXdXdXdXfXgXgXgXfXfXfXgX",
"#X#X'.=X'.=X=X'.=X=X=X=X=X1X=X=X=X=X,X;X-X=X;X=X-X|.-XUXUXk.l < l A 8.c.c.z.z.z.y.z.t.6.6.+.k 0   e %.x.i.u.Q.(.XX XzXMXNXbXVX4X>XOX{..XS.! U x 2 2 i N R E Q &.R I p i 2 O O p E /.eX+X).+X{.E.{.E.[.XX&X5XlX1X3X3XhXgXfXdXfXfXdX3XdXdXpXdXdXdXdXfXfXgXfXdXfXfX",
"#X#X#X#X=X#X=X=X=X|.:X=X=X;X1X2X;X;X2X;X;X1X=X;X;XiX-X|.-XkX;X7.M e < e b B O.+.O.O.m b e 0 0 b %.n.c.6.i.d./.(.XXqXxXbXMXbXcX5X.X>XXX{.P.0.=.D.u.*.B p 2 - - - - - 2 i x E u.).tXQ.Q.).{.).{.+X{.[.*X>X2X<X3X1X3X3XgX3XfXhXgXhXdXdXdXdXpXdXdXdXfXdXdXfXfXfXdXgX",
"B.$X`.`.'.#X'.=X:X=X:X:X=X1X1X=X2X=X;X2X1X=X1X,X;X-X-X1X;X`.;XUX8X8.+.B w w w e e w w i m #.l.n.n.t.6.e.a.g.(.oX XqXbXNXBXbXbX4X>X5XOX{.{.D.' ~ 0.u.b.b.z.z.-.;.-.z.n.!.(.(.(.).K.).oX).{.).{.+X*X].{. XXX1XpXdX3XgX3XgXhXhXhXhXdXdXdXdXdXdXdXdXdXfXfXfXdXgXgXgX",
"_.B.`.$X#X=X'.=X=X:X,X=X,X:X,X,X;X2X2X;X,X2X;X,X1X=X;X-X=X-X=X;X|.N.N.n.z.z.l.-.z.z.n.n.n.C.C.c.n.s.x.s.s././.oX XuXxXNXNXIXMXpX<X4XOX>X{.OXK.~ =.u.z.d.b.b.!.n.b.z.b.b.u.Q.!.^.Q.).).).).{.+X{.+X[.*X>X5XpXpXdXgX3XhXgXgXhXgXdXdXdXdXdXdXdXdXdXfXfXfXfXfXfXfXfX",
"B.B.`.`.'.#X=X=X=X=X=X-X;X=X;X=X2X;X=X2X,X,X;X;X,X=X-X-X#X#X;X#X=Xm.x.v.n.z.n.n.n.n.n.n.n.c.n.N.x.v.a.x.m.m./.}.XXqXxXnXNXBXBX5XlX>X>XOXOXOX).!.~ =.-.u.b.z.z.b.d.b.u.d.Q.Q.K.Q.).Q.).).).).).).{.{.&X:X2X3XsXsX3XhXhXdXgXhXhXhXdXdXdXdXdXbXdXbXdXgXfXgXfXgXfXfX",
"Y.B.$X$X$X$X=X;X$X;X=X=X;X=X:X,X=X2X1X1X=X:X=X=X;X2X$X=X=X=X$X=X-X|.N.x.x.n.z.n.n.n.n.n.N.n.c.n.N.s.d.v.m.~.(.XXeXVXBXBXBXBXVXVXlX4X>XOXOXOXOXXXu.! =.0.d.y.d.d.u.d.f.Q.Q.).Q.).!.P.).Q.).).{.{.{.{.{.2X3X3XsXsXhXhXhXdXgXgXdXgXdXvXvXdXgXdXdXdXgXdXdXgXdXgXgXgX",
"B._.B.$X$X$X#X#X=X=X=X=X=X=X,X:X1X;X=X1X;X1X=X2X;X$X=X=X&X=X=X=X|.'.N.N.x.N.n.n.n.n.n.n.C.x.C.x.s.N.v.v.M./.oX XVXBXBXBXVXVXVXVXlX<XOX4XzX4XOXOXD.E ;.u.u.b.b.M.}.}.).oX).).).OX{.).).L.P.P.).).[.{.&X:X1XsXhXsXhXsXdXgXdXgXgXdXdXdXdXbXdXdXgXdXgXgXgXdXgXdXgXdX",
"$XB.$X$X;X$X#X;X=X=X=X;X=X=X:X:X=X:X:X=X=X;X2X1X3X;X;X&X;X&X;X=X&X|.m.s.x.C.V.C.V.C.C.n.c.n.n.n.v.N.v.N.v.Q.(.XX+XtXVX+XVX+X+X+XOX.X>X>X4XOX{.OX).~ =.u.b.}.}.M.b.!.u.u.u.D.F.F.F.L.P.P.L.P.P.^.{.{.XX2X1XsXsXsXdXdXdXdXgXdXfXfXbXdXfXdXdXgXdXgXdXgXgXgXdXgXgXdX",
"_.$X$X$X$X$X#X#X=X=X=X#X=X'.=X:X=X,X,X=X=X;X=X=X&X;X=X;X2X=X&X=X].'.,X|.|.|.8X0X8X0X0X0X0X|.}.N.N.v.v.M.M.M.~.(.+X+X+X+X+X+X+X+XOXOXXX{.OXOXOXOXQ.~ u.u.b.M.b.b.b.b.u.f.Q.D.u.D.D.D.A.L.D.L.L.P.E.{.*X2XsXsXsXsXfXdXdXgXdXfXfXfXvXdXdXfXfXdXgXdXgXdXhXdXgXdXgXhX",
"`.`.'.$X$X$XUX`.;X#X;X=X:X=X#X:X=X=X=X=X=X;X=X=X=X;X=X&X=X:X=X#X,X1X,XV.N.x.N.V.b.n.v.N.V.V.V.c.N.b.b.b.b.b.M./.).).@X+X@XF.).+XXX{.).).).{.).(.!.u.d.d.b.b.}.M././.(.(./.Q.u.D.K.D.D.A.A.H.J.P.{.[.&X2XdXsXsXhXdXfXdXbXdXgXfXfXdXdXvXdXgXdXgXfXgX3XgX3XdXdXgX3X",
"].`.'.$X`.$X`.`.#X#X#X=X#X'.#X#X#X#X2X=X=X&X2X=X2X;X=X=X=X=X=X=X#X`.`.B.N.N.V.b.V.}.}.V.}.0X|.N.V.b.b.n.c.c.b././.!.!.@X!.).^.).).Q.^.Q.!.u.!.Q.u.b.u.v./.M.x.y.i.s.d.d.Q.(.!.(.D.D.D.A.D.H.L.P.{.].:X<XsX1XsXhXdXdXdXfXdXgXdXgXvXdXdXvXdXgXdXfXgXgX3XgXgXgX3XgX",
"`.$X#X'.`.#X$X#X$X#X#X=X#X'.$X$X#X=X=X#X$X;X=X;X=X;X=X=X=X=X=X=X=X=X X`.v.V.}.0X0X0X|.V.V.V.V.V.n.v.c.d.z.z.z.c.b.M.b.!.(./.b.z.d.=.=.~ ~ =.u.Q.b.b.v.a.s.v.M.}.v.q.4.e.u.r.d.Q.(.^.K.A.A.D.P.^.{.{.&X1X3X1XsXhXfXfXdXdXdXdXfXdXfXfXbXvXgXdXgXdX3XgXgX3XgXgXgXgX",
"`.`.`.#XB.`.$X`.=X#X#X=X#X'.$X#X#X:X#X$X$X$X&X;X=X=X=X=X#X:X=X:X=X=X-X,X|.|.|.V.V.b.c.N.V.}.|.V.N.x.b.z.z.z.t.z.z.n.n.b.c.b.z.y.y.=.:.E E 0.Q.Q.Q.d.v.d.i.i.e.i.x.M.v.9.9.r.u.w.u.D.D.D.A.D.^.P._._.,X1X3XiXsXhXfXdXdXfXbXdXfXfXdXdXfXdXgXdXdXgXgX3X3XgX3X3XgX3X",
"`.`.`.`.$X`.`._.$X#X$X'.#X'.#X#X#X&X=X=X#X#X=X;X=X;X=X&X'.:X:X:X X-X1XdX|.B.N.N.N.n.V.0X0XM.v.x.v.c.c.z.z.z.t.6.z.z.n.z.z.t.t.y.-.=.=.E =.u.!.Q.~.f.f.d.d.t.y.6.&.9.i.a.r.r.r.g.w.D.S.A.A.A.L.U._.=X1X1XiXiXhXpXhXdXdXdXdXdXdXdXdXdXvXgXgX3XgXgX3XgXdXdXgX3XgX3X",
"_.`.`.'.`.$X_.`.#X$X#X$X#X#X#X#X=X#X#X&X$X=X&X=X=X&X=X=X=X:X:X X=X-X:X=X|.|.C.x.V.0X0XC.c.n.N.x.c.c.c.z.z.t.z.6.z.z.z.z.y.y.e.y.y.=.=.9.D.!.Q.K.Q.D.v.d.r.r.y.&.4.4.&.&.4.f.Q.g.D.D.F.A.H.L.^.^.'.:XuX1X1XiXdXsXsXhXdXfXdXgXdXfXdXdXdXdXgXdXdXdXgX3XgXdX3XgXgXdX",
"].`.]._.B.$X$X_.'.$X`.$X$X'.#X$X$X&X$X$X$X$X=X:X*X=X$X=X:X:X:X$X:X'.=X=X'.B.V.|.|.V.n.c.x.x.x.x.x.x.a.z.t.t.z.t.6.z.z.y.6.y.e.t.y.;.y.u.Q.Q.Q.P.K.~.f.f.m.e.&.9.=.9.e.&.Q r.D.K.D.S.D.A.H.H.L.^.XX;XiXiXiXpXdXdXdXhXhXfXgXdXdXdXdXdXdXdX3XgX3XgXdXgX3XgXdX3X3X3X",
"_.].].].]._.T.B._._._._._.$X$X_.$X%X$X&X&X%X$X&X$X$X&X*X$X&X&X&X'.=X&X'.'.`.'.B.N.C.v.N.C.x.p.x.a.z.a.p.z.t.t.t.-.t.z.-.y.6.t.t.=.r.u.Q.!.Q.Q.).Q.K.f.f.u.r.9.9.9.9.e.9.9.r.g.D.D.A.S.A.D.L.L.].:X1X1X1XiXpXhXsXsXhXhXdXdXgXdXdXdXvXdXdXgXdXdXdX3XgXgX3XdXgX3XgX",
"].T.T.].Y.B.T.$X_._.B._._._._._._._.$X$X%X$X7X7X&X$X7X$X7X%X_._.'.[.'._.$X#X].N.k.N.B.x.x.x.p.x.p.p.t.t.t.z.z.y.z.6.6.-.-.*.6.y.y.D.!.).).).).Q.Q.Q.D.f.b.9.=.y.e.9.9.r.u.g.g.w.A.S.A.A.H.j.L.].:X,X,X1X1XsXdXdXhXsXhXhXsXfXfXhXvX3XgX3X3XgXdXdX3XvXgX3XvX3XdXdX",
"T.T.B.T.Y.T._._.T.Y._._._._._._._._.Y.Y.7X7X7X7X_.7X7X7X_._.7X7X[._.Y._._._.T.B.j.N.x.x.s.x.x.7.p.p.p.a.t.z.y.y.z.-.6.-.-.6.-.y.u.Q.Q.!.).).).).Q.).(.d.E &.r.y.9.9.i.u.g.w.D.A.0.S.S.S.A.L.^.].,X,X,X,XsXhXsXsXsXhXsXhXfXdXfXfXdXdX3XdXdX3XdXdXgXdX3XgXgX3XdXdX",
"B.T.T.T.T.Y.B.Y._.T.Y.Y._.Y.Y._._.7X_.Y.Y.Y.7XJ.7XY.7X7X7XY.Y.Y.T.Y._.T.T.Y.].T.j.k.k.x.x.x.p.7.p.e.6.t.t.y.y.y.-.-.-.-.-.6.y.;.!.Q.!.).).@X).).(.9.E Q r.u.d.y.r.a.d.q.D.0.w.0. .S.w.w.h.K.].{.-X1X1XiXiXsXsXhXsXsXhXhXhXhXfXfXdXgX3XdXdXdXdXdXgX3XgX3XgXdXdXdX",
"T.T.].T.T.Y.T.T.T.Y.Y.Y.T.Y.Y.U.7XY.7XY.Y.7X7X7XY.Y.Y.Y.Y.Y.7XI.Y.I.J.T.I.I.G.j.j.j.k.s.k.x.7.c.p.e.7.6.t.-.-.-.-.-.-.-.-.-.y.b.u.u.;.u.u.F.=.E J U Q f.f.g.f.u.g.d.g.u.D.w.w. .{ w.] w.h.].'.'.-X1X1XiX1XiXiXsXhXhXhXsXdXhXhXhXdXdXdX3X3XdXdXgX3XgXvXdX3XvXdXdX",
"T.I.I.T.I.T.T.I.Y.Y.Y.Y.Y.Y.Y.Y.J.7X7XJ.7XJ.7XJ.7XJ.J.7XJ.Y.Y.J.J.T.I.J.T.T.T.T.G.j.s.k.s.p.x.7.p.7.z.t.6.&.*.*.-.:.*.*.-.-.-.:.:.:.:.H H p p J =.D.(.K.f.K.m.f.g.s.g.w.w.w.] ] ] { w.w.L.'.:X:X1XiX1X1XiXsXsXiXiXiXsXsXsXdXdXhXfXfX3XhXdX3X3XdXgX3X3XgXdXdXdXdX",
"J.T.I.I.I.I.I.I.T.T.I.I.T.T.I.I.J.7XJ.7XJ.7XJ.7XJ.7XJ.J.J.Y.J.T.I.T.T.I.T.T.G.T.G.j.h.q.q.7.x.p.7.p.7.z.t.-.%.:.:.*.:.:.I I I I I I I p I :.;.F.!.L.K.D.L.j.h.g.f.g.g.w.0.{ ] { w.{ w.L.].&X:X=X,X,XiXiX1XkXsXsXsXsXhXsXhXsXhXdXhX3XfXfXhXfXfXdXgXgXgX3XdXdXdXdX",
"J.T.J.I.I.I.I.I.T.T.T.T.T.I.I.I.J.7XJ.J.J.J.7XJ.7XJ.7XJ.J.J.J.T.J.G.J.T.I.J.G.G.I.T.j.q.5.s.7.s.p.7.7.6.t.z.-.*.*.-.:.:.I :.:.:.:.:.;.;.!.!.!.Q.Q.D.D.K.L.f.D.j.h.f.g.w.0.] ] ] w.w.h.].:X:X=X=X1X,XiX1X1X3XiXiXdXsXsXiXpXsXkXdXdX3XfX3XfX3XgXdX3XgX3XgXdXgXdXgX",
"J.J.J.J.Y.I.J.T.T.J.T.T.T.I.J.I.J.J.J.J.J.7XJ.J.J.J.J.J.J.Y.J.J.Y.T.G.J.G.h.j.h.h.w.k.q.9.5.e.i.7.p.p.p.7.z.z.z.-.-.-.-.-.-.-.;.-.;.!.;.u.!.D.!.D.Q.^.~.m.A.f.f.g.f.w.w.{  .{ { { h.T.XX:X=X=X1X1XiX1XiXiXsXsXiX1XsXsXsXpXpXdXsXdXdX3XfX3XfXdXhX3XgXdXdXdX3XgX3X",
"G.J.J.J.T.J.I.T.T.J.J.T.I.I.J.J.J.J.J.J.J.J.J.J.J.J.| J.T.T.J.G.h.| | | { { [ [ ' [ ' q.q.5.e.9.i.7.s.p.t.t.t.z.l.-.-.-.y.-.-.y.;.;.u.D.u.!.D.D.Q.K.^.f.K.~.Q.f.h.g.w.w.{ S.w.S.w.K.{.:X=X=X;X2X1X1X1X1X1XsX3X3X3X3XpXdXdXaXsXdXdXdXdXdXdXdXdXdXfXfX3XfXdXgXdXdX",
"G.G.J.J.T.J.T.J.T.J.T.T.J.J.J.J.J.J.J.J.J.J.J.J.J.J.J.J.h.G.h.h.| | [ ) ` [ [ ( ( [ [ 9.) Q 5.e.i.6.e.p.p.z.6.t.z.-.-.l.-.y.y.u.;.;.u.u.u.u.f.D.K.K.K.m.~.^.L.Q.D.A.S.w. .] { w.j.U.'.:X=X=X,X-X<X3XiXuX3X3XdX1XdX3XpXiXpXdXsXpX3XhX3XdXdX3XdX3X3X3XhXfX3XdXdXdX",
"G.G.J.J.J.J.J.G.J.G.J.J.J.J.J.G.J.| G.G.J.| J.G.| G.| | | 5.[ [ [ ` ( T T ( ( T L ( T T Y W 4.9.i.e.e.e.p.p.z.p.-.t.z.z.y.t.y.y.z.z.y.r.g.w.K.K.K.^.^.L.K.L.K.D.A.h.g.S.S.{ S.H.L.].'.|.=X;X=X:X1X1X1X1X1X3X3X2X1XpX1X3XiXpXsXdXsXsX3XdXdXdX3XhXfX3XfX3X3XgX3XgX",
"G.J.G.G.J.G.T.J.T.G.G.J.G.G.G.h.G.G.G.G.G.G.| G.| | [ [ [ [ ` ( L L L ( ` ) ( ( c v K K K Y W 4.9.7.i.p.t.7.t.7.l.z.l.-.y.y.e.y.-.y.u.u.D.f.~.K.^.^.^.K.K.L.K.L.A.h.S.S.S.{ S.L.L.].:X=X;X|.=X1X,X,X2X,X3X1X3X3X3X3XpX1X3XdXdXsX3XsX3XdXdX3XfX3XhXfX3XfX3X3XdX3X",
"| J.J.| J.J.J.J.T.G.h.G.G.G.G.G.h.h.h.h.{ [ | [ [ [ ` ( ` P ( L ( L ( ( P L L c L c L _ c 5 < S 6.6.i.i.p.p.7.t.p.z.p.z.t.e.y.e.y.y.r.d.K.m.K.^.^.].^.^.^.L.L.D.S.w.S.S.S.S.W.P.T._.#X'.;X-X&X2X2X2X2X3X2X2X3XpXdXpX3XpXpXpXpXuXpX3XpXiXpXiXsXiXsXsXdXdXsXdXsXdX",
"H.G.J.J.| J.J.| h.J.J.h.| G.h.h.h.h.[ { w.[ [ [ ` ( ( L P L L P L L L v v v 5 v L ( Y v 4 + > S 4.e.e.t.7.p.p.p.p.z.a.t.y.y.t.y.d.u.f.Q.K.~.^.^.].^.^.^.^.K.^.D.w.S.>.S.S.A.W.L.T.].#X=X;X-XXX:X2X:X2X2X2X3X3X2X<X1XpX1X<XpXpX1X1X1X1XpXiXdXdXdXaXsXpXiXiXpXiXsX",
"| J.G.| G.| G.| | G.G.| | | | | [ [ [ [ ' ` ` [ ` ( K P ` ` ( L v L c v K L v L ) L 5 2 o o 2 S 4.4.7.i.7.p.p.c.x.a.c.z.a.t.d.b.Q.b./.(.^.^.).].^.^.).^.^.^.^.H.H.A. . .S.W.W.L.^.].'.'.#X=X&X2X:X:X2X2X2X2X2X2X3X3X<X1X3XpX<X3X2X2X2X3XiXpX2X3XpXsX3XpXpX3X3X3X",
"J.| | J.G.G.G.G.G.| | | | [ ` [ ` ` ( ` ` ` ( T L K L T ( P v 5 v L c v v K L L c 4 < o 1 1 l @.&.4.6.5.p.7.7.c.c.c.d.d.d.v.b.Q.Q.(.(.(.].(.].{.].).].^.^.L.D.K.w.S.S.S.S.W.W.W.T._.&X#X=X#X$X&X&X:X:X:X2X:X2X2X2X2X2X1X2X1X3X2X2X2X2X1X2X2X2X3X5XsX2X3X1X1X3X2X",
"H.H.| | | | | | | [ [ ` [ [ [ ` ) [ T P T K L ` P v P K 5 5 v P ( K L L z v c v 4 + + + 1 , w S %.3.4.e.p.p.p.x.v.x.d.v.b.M././.(.(.oX(.).).].^.{.{.^.^.^.L.D.H.A.w.A.H. .W.W.J.L.].[.'.&X=X$X$X#X&X&X&X&X&X2X:X2X2X2X2X2X2X2X2X2X:X2X2X2X2X3X2X2X2X2X2X2X2X2X2X",
"H.| | | | { { [ ` ( ` [ [ ` ( ( ' ( K K P L P P P v v v z P ` L c v c L c C c 2 2 < . 1 # 0 l @._ 4.4.7.p.7.x.x.x.v.b.v.m.~./././.}.(.).].).{.^.^.^.^.P.^.L.D.A.w.A.S.H.H.H.W.W.L.T.^.^.%X%X&X&X&X%X'.&X&X&X&X&X&X&X&X&X&X:X&X:X:X*X*X2X*X2X:X3X2X2X6X2X2X>X2X2X",
"| | | { } [ [ ` [ ` ` [ ( P L L T K K T T T L v v L P L v L v 5 v c c Y _ c 5 + + o 1 # & e w @.&.Q 4.e.i.p.7.s.x.v.b.m.Q.m.m.M././.].(.).].).).^.^.^.^.^.D.D.A.A.A.S.W.S.W.W.W.P.g.w.H.R.Y.Y.7X&X%X_.%X$X&X%X&X&X&X>X&X&X&X&X&X*X&X*X&X*X&X&X&X*X:X:X2X6X:X*X2X",
"[ [ [ [ [ [ ` [ [ ` [ ( J K ( ( T T K L L K c z v L v v 5 v v v c Y c c C 4 + < + . . # 8 0 w 3.%._ 3.4.e.7.p.p.x.v.M.M.m.M.~.m.~.~./.).^._.^.^.^.^.^.L.K.D.h.w.A.A.A.S.H.H.H.H.K.0.' H.7XY.T.Y.%X%X%X%X[.%X%X&X%X&X&X&X&X&X&X&X*X%X&X*X*X*X*X*X&X*X&X&X&X&X&X%X",
"} [ [ [ ` ` [ ` ( ( ( ( L L ( ( T T U Y K Y c z L v v L v K T K c z 5 c 5 + < + o . @ % y q w %.&.W 3.4.5.i.7.p.x.x.v.m.M.M.m.m.m.m.j.^.].^.^.~.L.Q.^.L.D.H.A.D.A.H.W.S.H.H. .W.A.q.~ ] W.R.7XG.h.T.Y.%X%X%X%X%X%X%X*X%X%X&X%X*X*X%X7X%X*X%X*X*X%X&X%X%X*X&X&X&X",
"[ ` } [ ` | ` ` ( ( ( ( L L L L P K K L L K v K L v K L z c K z z C S c 2 < < + . X @ 6 y y w @.%.Q 3.4.2.7.7.p.p.x.d.v.g.v.N.j.v.~.^.m.~.~.K.^.^.D.D.D.A.D.w.H.A.D.S.S.S.S.W.L.j.9.' ~  .E.E.J.G.T.R.%X%X%X%XR.%X*X*X[._.%X*X%X%X%X%X*X*X7X7XY.%X*X*X%X*X{.[.%X",
"` ` ( ( ( P P L ( T L L K J L L c L T T ! c z c L K v z z v 4 5 Y Y T z < + + = . X @ 9 r y w @.%.Q &.3.4.6.6.p.p.p.z.s.x.x.N.g.m.m.m.m.m.K.m.K.Q.K.D.D.g.A.A.A.A.A.A.H.S.S.S.K.g.&.~ P }  .E.G.*X*X%X7XR.R.R.I.I.R.%X%X%X%X%XR.7X%X7XR.7X7X*X7X7X%X%X%X%X7X[.%X",
"( P ( P P ( L ` ( ( ( ( K c L T Y K c c K K v v v v z v c c z v C C 5 + + + - O . # * 8 t t 0 A %.W %.&.3.8.6.7.7.p.p.p.p.s.s.x.v.v.g.s.j.f.f.g.h.D.g.g.w.A.A.A.F.A.S.S. .S.A.D.p.2.E J } } E.W.H.T.Y.R.R.[.R.R.G.T.R.%X*X%X%X[.7X%X%X7X7X7X%X%X%X7XR.R.%X*X%X{.",
"( P ` ( ( ` ( P T ( T T K U T ) L v z U K K v v c L c c S v l c l x 2 + + > o .   # 6 8 r r ; B W %.%.%.3.4.8.8.6.6.7.p.p.p.p.x.r.x.d.a.s.g.g.g.Q.u.0.w.w.A.A.h.S.S.S.S. .{ D.g.8.3.W 5 } ^ W.E.H.G.h.G.U.%X[.Y.Y.T.G.T.[.&X6X*X7X7X%X%X*X7X7X7X%X7X7X7X%X*XR.R.",
"` ` ` ( L P L L ( ( T T L K ! Y z 5 c K Y v c C c K S _ v v Y S c l + + O + =     * 6 r r 9 & b %.W %.%.%.%.2.2.6.6.6.6.6.6.6.7.t.p.t.r.r.r.r.q.9.q.w.w.D.w.A.S.S.w.w.S. .H.h.i.#.3.Y 5 F } } E.H.Y.T.h.[ { h.R.[.[.T.G.G.R.%X*X%XY.Y.%X%X%X7X7X7X%X7X7X%XR.R.7X",
"( ( ( L L L ( ( T ( T T Y K c z 5 5 K K _ L Y c c _ _ c z C _ c N 4 O o o +   . @ % 9 9 r 9 : i A R %.%.%.2.2.8.8.6.8.6.8.6.6.4.7.6.6.4.9.9.9.=.~ u.D.g.w.A.S.w.w.0.S.w.w.w.w.%.S @.c 5 F } ^ | J.U.L.h.I.R.U.U.T.R.R.U.L.U.R.%X6X%X%X%X%X%XR.7X7X7X%X7X%XR.R.*X",
"L ( ` ` ` ` ` L L K v z v K Y L Y K K c L K v K v z z c v c c S 4 + + o + = .   # % 9 9 9 8 % 2 A A W S %.3.2.2.8.8.2.2.2.2.8.2.8.&.2.4.&.&.Q Q g.g.w.A.w.A.S.w.w.S.S.{ w.w.e.S V Z C 5 F P } } I.E.U.G.U.Y.E.T.{.Y.R.[.%X_.[.R.&X*X6X2X6X%X%X%X7X%X%X7X%X7X7XE.",
") ` ` ` ` ` ` T L L K c K L ( Y Y _ c c L v 4 z 5 z Y Y c c V v + + 1 o 1 .     @ % 9 9 q 7 # e B A %.S @.3.3.2.8.2.2.8.2.%.&.%.*.&.%.%.*.Q 9.r.w.w.u.S.w.A.w.w.w.S.0.w.0.4.S o.V V Y U ~ } ^ } P.>X>X%XG.h.P.I.I.7XU.U.%X%X[.R.T.Y.&X>X*X%X%X_.%X%X$X7X7X7X7XY.",
"[ [ ) ( ( T T L T P K L K c K T c L L T v 4 5 L v v _ c c c v 4 o o + + =         & 8 8 0 * @ , k N +.@._ @.@.3.2.2.2.%.6.2.2.%.2.&.4.&.&.e.y.u.u.w.w.w.S.0.w.w.0.[ 0.9.3.@.S o.V V &.~ ]  .}  .).XX&X:XL.w.w.H.[ [ h.T.E.U.R.U.T.G.U.*X2X*X:X*X_.$X%X%X7X7X7X7X",
"5.[ [ ) 9.' ` ( T P T ( T K v c 5 v c z 4 4 K L 5 z v c c c l 1 o + + > $     $ # ; 8 8 % * & , i B A A @.@.@.3.3.2.8.8.2.8.8.2.2.4.&.3.4.9.e.g.u.g.w.w.w.w.] [ w.0.0.5.S V V n X.O.8.E ~ ]  . .P.>X5X>X_.H.{ S.H.h.` [ h.L.U.[.U.T.Y.*X2X%X%X6X*X&X$X7X7X7X6X7X",
"[ 5.q.[ q.s.q.w.) Q 9.[ ) T c v z 5 z z v v z 4 5 v c L c v < 1 + + o . . #   . # ; 8 6 * @ - - i k A S S _ 3.%.2.%.%.8.&.2.%.3.3.&.&.4.4.9.q.0.q.w.0.w.0.w.] 0.[ ) 4.S Z V n g f #.*.E ~ >.} ] S.{.>X_.L.j.S.{ J.h.{ h.J.T.U.E.E.T.G.Y.*X%X_.%X6X*X%X7X7X7X6X6X",
"q.[ q.q.j.j.K.m.g.q.f.q.g.9.Y Y _ C Y Y Y v z z c S c S c 4 1 1 + + o = $ # # X   ; 7 7 *   - - i i B A A W %.%.2.%.2.8.2.2.2.2.&.4.4.4.9.9.q.r.w.q.q.0.0.0.[ ' 5._ S Z V n n n h O.*.R =.] ] ] S.P.XX>Xj.G.I.L.G.h.[ h.U.I.L.[.[.U.h.T.R.%XR.Y.7X*X*X*X*X&X%X&X",
"k.k.k.k.m./.(.(.~.K.m.f.f.j.9.) ` 5.) _ v c _ 5.Y c Y c S 4 o + + = . . @ # . . @ 0 0 * * 0 2 i p p p C %.2.8.%.@.8.@.2.2.2.3.2.3.&.4.4.9.9.0.q.q.0.w.0.0.{ ' 9._ S V h h n g g g n B I ~ ~ ] 0.0.P.[._.B.h.h.I.G.J.` ( H.I.H.T.[.%X%XY.Y.%X7XR.7X%X%X&X*X%X%X$X",
"j.k.h.j.B.].|.(.}.]./.~.].m.s.q.5.5.[ ) _ _ 5._ _ S _ _ Y 3 o o o o .   @ # $ # # 0 & * - p B B N N N E -.t.z.6.8.%.8.2.2.2.3.2.&.4.4.9.5.9.q.q.9.0.0.q.9.9.9.&.S n a h h h g g g h i I / ] ~ ] ] W.{.U.%XT.h.J.h.G.| ` ( [ h.H.T.R.R.R.Y.7X6X6X*X*X7X7X%X2X&X&X",
"k.k.j.B.B.].}.}./.}.}.B.B.N.q.q.[ q.) _ 5.5.5.5.5._ ) ) S + o + o . . . # : # X , 7 @ & M B B N I C I *.&.6.z.c.%.%.2.@.2.&.3._ ) 4.4.4.9.q.q.0.0.{ 0.' 4.4.%.S V a j h h h h a f w = 5 ^ ~ ] >.] ] {.[._.T.G.q.h.h.T.G.[ P P ( w.h.R.U.h.h.I.7X*X*X6X*X&X&X*X:X",
"T.B.B.B.B.`.|.].|.}.B.].N.k.q.q.[ 5.5.5.5.5.5.3._ 5.5.5.V + o + o $ $ # & : : : 0 & * 0 B B B B I R E *.&.=.-.z.2.%.%.2.%.2.&.3.&.4.6.q.9.9.9.q.[ ' [ 9.4.@.@.V g d ..d a g h a j e O 3 F ^ / } P ^ [.*XR.Y.G.h.[ T.G.T.h.[ [ h.j.T.R.R.G.{ h.J.7X6X*X*X*X2X&X:X",
"k.B.B.B.k.B.}.|.|.}.}.N.N.q.q.q.k.k.5.5.5.5.5.Z.5.5.5.3.2 + + o o     * : 7 : 0 ; & $ - B B p I I E E E &.=.-.6.*.%.%.%.%.3.3.3.4.4.5.9.5.5.[ ' 9.' ) 4.@.Z m g ..d d d h h g h q 0 O 3 F D P P J F | J.R.I.G.I.` h.T.G.H.h.G.G.G.T.R.U.Y.J.h.{ G.Y.*X%X*X*X2X&X",
"B.B.B.B.j.B.B.|.`.`.$Xk.k.q.s.k.5.k.5.5.5.5.5.5.3.3.3.z o o o o =   @ & 7 9 7 : & * * - p B B I I :.:.*.:.=.=.&.%.R %.%.W %.%.%.4.4.4.5.e.q.9.9.) ) &.@.Z g f d ..d d a d d h d j ; O 3 G G F J F J [ H.Y.G.G.%Xh.` h.h.h.w.G.w.[ h.h.J.Y.R.%XE.G.I.%X%X*X*X*X*X",
"_.B.$XB.B.M.B.`.$X$XB.k.k.k.k.q.| 5.5.5.5.5.5.3.3._ S < o o o o = $ * 7 7 9 9 q ; * & - i B I N R R E E E &.=.*.C C A W W 3._ 4.) 4.9.4.4.9.' 4.9._ S Z V g d d d d g d d h d d q , 3 3 G G G F F J { h.R.Y.I.R.J.| w.w.h.` [ L.| [ { { H.I.[.%XY.I.R.%X&X&X&X*X",
"`.B.`.`.`.B.B.].UXk.k.k.B.k.k.5.k.5.5.5.5.3.3.3.3.5.3.2 . + o . . # & 7 9 r 8 8 & * , . - p I A I I E E E E E U N C A S W *.%.4.4.9.) 4.' 4.) 3.3.#.g ..g d d d d ..a a a a f a s < 2 3 3 G G F G F } | I.Y.J.h.h.Y.h.h.T.h.` h.G.T.G.h.| G.[.[.%XY.T.Y._.7X_.*X",
"#X;XB.`.`.B.B.B.T.B.B.B.k.k.k.k.k.5.k.k.3._ 5.5.5.k.S < + + o . . # & 8 q j 8 8 % $ , . - i p I :.I E E =.E I x x N C R W W Q &.&.) =.' 4.9.4.&.O.n g d d r t d d d a a a a f g V > 3 3 G G G F F P H.| | T.T.| w.U.L.h.h.G.h.[ h.T.[.T.j.h.G._.7X_.7X7X7X7X7X7X",
";XUXUX`.`.B.].B.B.k.B.B.k.k.k.5.k.k.k.5.5.5.k.7.7.8.l o > = . . $ & : 9 9 r r q 7 $ , . O - i B N R E E E J x p x C N C R W Q &.Q 4.~ ) ' ~ 3.S V g d ....t r d r r h h h d a O.B X O 3 3 G 3 F G J W.G.[ h.7XG.` h.L.U.[ h.h.` h.G._.{._.L.h.h.Y.Y.7X$X7X7X7XY.",
";X#X#X`.`.].].B.$Xk.k.k.B.k.k.k.k.k.5.5.5.5.k.7.5.S < > o o O . $ 1 7 9 9 r r 8 & # , > - - - i N I :.I J p p J N N N C W %.Q &.4.) ~ ) ) Q Y Z n h d d d d d t d a a j j a g O.< X 3 3 3 D G D G G | 7Xh.[ I.I.h.h.h.h.h.[ [ [ ' { L.T.Y.].Y.T.B.h.G.J.Y.I.7X7X"
};
