/* XPM */
static char *Free_Converter_com_imgonline_com_ua_resize_lkvfbgpfdajxh3f_55040112[] = {
/* columns rows colors chars-per-pixel */
"128 128 256 2 ",
"   c #0C0A06",
".  c #0D0D0B",
"X  c #080603",
"o  c #110603",
"O  c #130B05",
"+  c #1B0D06",
"@  c #120E0A",
"#  c #1B0E0A",
"$  c #0F100B",
"%  c #15120D",
"&  c #1B150D",
"*  c #1D190E",
"=  c #191108",
"-  c #0E0F11",
";  c #151311",
":  c #1A1611",
">  c #1D1A12",
",  c #1A1C16",
"<  c #110F10",
"1  c #210F0A",
"2  c #200D07",
"3  c #23140D",
"4  c #2A150D",
"5  c #241C0D",
"6  c #291C0E",
"7  c #271306",
"8  c #231611",
"9  c #2A1711",
"0  c #231D13",
"q  c #2B1C14",
"w  c #241D19",
"e  c #2B1E1A",
"r  c #311E15",
"t  c #321E19",
"y  c #391E13",
"u  c #1E2119",
"i  c #28200F",
"p  c #252116",
"a  c #2A2116",
"s  c #25221A",
"d  c #2C241A",
"f  c #2D281D",
"g  c #332116",
"h  c #392217",
"j  c #34241B",
"k  c #3A251C",
"l  c #34291E",
"z  c #3C2A1D",
"x  c #2C2521",
"c  c #2B2B23",
"v  c #2A2B25",
"b  c #332521",
"n  c #3B2720",
"m  c #342A22",
"M  c #3C2C23",
"N  c #392E29",
"B  c #353325",
"V  c #3B3326",
"C  c #35352B",
"Z  c #3B362A",
"A  c #3C3A2D",
"S  c #37392C",
"D  c #3D3C32",
"F  c #383831",
"G  c #2D3027",
"H  c #422B1E",
"J  c #452B1D",
"K  c #432D22",
"L  c #492E23",
"P  c #432E29",
"I  c #472C27",
"U  c #453124",
"Y  c #4B3325",
"T  c #44342B",
"R  c #4C352A",
"E  c #433B2E",
"W  c #4E392B",
"Q  c #493827",
"!  c #503527",
"~  c #51362B",
"^  c #523A2D",
"/  c #583C2E",
"(  c #4B3731",
")  c #443D32",
"_  c #4B3C33",
"`  c #493A37",
"'  c #543C32",
"]  c #593D33",
"[  c #533E39",
"{  c #553A33",
"}  c #3E4138",
"|  c #454235",
" . c #4B4235",
".. c #44443C",
"X. c #4D443A",
"o. c #4D493C",
"O. c #554234",
"+. c #5A4235",
"@. c #52453C",
"#. c #5C443A",
"$. c #534A3E",
"%. c #5C493D",
"&. c #524836",
"*. c #59503F",
"=. c #61463C",
"-. c #63493D",
";. c #664B3D",
":. c #4C4B43",
">. c #484841",
",. c #544C42",
"<. c #5A4D43",
"1. c #584843",
"2. c #565145",
"3. c #5B5246",
"4. c #54534B",
"5. c #5C544A",
"6. c #5E594D",
"7. c #5C5B53",
"8. c #5A5A54",
"9. c #4D5149",
"0. c #644C42",
"q. c #694E43",
"w. c #634B45",
"e. c #6B5245",
"r. c #62554B",
"t. c #6B554A",
"y. c #635A4E",
"u. c #6C5B4D",
"i. c #645345",
"p. c #725A4D",
"a. c #71564B",
"s. c #645D52",
"d. c #6A5D53",
"f. c #625451",
"g. c #735D52",
"h. c #755C55",
"j. c #5F615A",
"k. c #656155",
"l. c #6B6255",
"z. c #63635B",
"x. c #6C655A",
"c. c #6D695D",
"v. c #756156",
"b. c #7A6356",
"n. c #74645B",
"m. c #7A655A",
"M. c #736A5D",
"N. c #7C6A5D",
"B. c #716857",
"V. c #756C5A",
"C. c #6C6B63",
"Z. c #686A63",
"A. c #736D62",
"S. c #7D6B62",
"D. c #736562",
"F. c #6D736C",
"G. c #6D746B",
"H. c #757165",
"J. c #7C7364",
"K. c #72756D",
"L. c #7B756A",
"P. c #7C796D",
"I. c #76796E",
"U. c #737771",
"Y. c #747B73",
"T. c #7A7D74",
"R. c #7A7F78",
"E. c #6F7870",
"W. c #82695D",
"Q. c #836D63",
"!. c #837365",
"~. c #84756A",
"^. c #8A756B",
"/. c #837A6D",
"(. c #8B7A6D",
"). c #857766",
"_. c #827D72",
"`. c #8B7C72",
"'. c #807F7A",
"]. c #937D71",
"[. c #798076",
"{. c #7C827A",
"}. c #768075",
"|. c #848275",
" X c #8C8274",
".X c #84847B",
"XX c #8B857A",
"oX c #8B8A7D",
"OX c #87887A",
"+X c #928376",
"@X c #93847B",
"#X c #93897C",
"$X c #9B8B7E",
"%X c #978679",
"&X c #928A77",
"*X c #A38C7D",
"=X c #8A8A81",
"-X c #948C82",
";X c #9B8D83",
":X c #9C9284",
">X c #9C9489",
",X c #979388",
"<X c #9C9B92",
"1X c #A28E82",
"2X c #A2958B",
"3X c #A49A8C",
"4X c #AA9C8C",
"5X c #A79487",
"6X c #A49D93",
"7X c #AA9C93",
"8X c #B29D92",
"9X c #B19989",
"0X c #A5A296",
"qX c #ACA293",
"wX c #ABA69C",
"eX c #B2A394",
"rX c #B2A59B",
"tX c #B3AA9C",
"yX c #BAAB9D",
"uX c #BAA598",
"iX c #A9A08E",
"pX c #B5ACA3",
"aX c #BCAEA3",
"sX c #BAA7A1",
"dX c #BBB2A5",
"fX c #BDB5AB",
"gX c #B7B4AA",
"hX c #BDBCB3",
"jX c #ADAEA5",
"kX c #C2AC9E",
"lX c #C4B9AD",
"zX c #C4B5A9",
"xX c #C4BDB2",
"cX c #CABCB3",
"vX c #C3BEB8",
"bX c #C8B5A8",
"nX c #BEC1B8",
"mX c #CBC2B5",
"MX c #C7C4B9",
"NX c #D3C7BB",
"BX c #CCCCC4",
"VX c #D6CDC2",
"CX c #DCD5CA",
"ZX c #DCD9CD",
"AX c #D7D2C8",
"SX c #DBDCD4",
"DX c #CED1CA",
"FX c #E3D6CB",
"GX c #E3DDD2",
"HX c #EBDED3",
"JX c #EBE5DA",
"KX c #E6E3D8",
"LX c #F2E8DC",
"PX c #EBE9E1",
"IX c #F3ECE1",
"UX c #F5F2E9",
/* pixels */
"S S S A S S S S S S S A | S B y.i.*.OXiXiX&X*X&X).i.*.| B B f l f d l f l V _  .T l l l a * & * = & # 8 # 8 3 & = = = + = = + O O       . - - - - < ; ; ; ; ; : : < ; ; % & u p p p 0 * 5 5 5 5 * = * % = % * * * 5 * * 5 * * 7 * * 5 * 5 5 5 5 * 5 5 * * * * * ",
"S S S F F A S S S S A A B B | l.*.3XdXqXiXiXiXiX&XV.B.*.V i A f l f l a a l V Z M d f l a 0 * * 5 9 0 0 q w q 0 p i q * 3 & & = % $ @   . . . - - < < < ; ; ; # % < $ % % % : > > > 0 5 5 5 * * * & % % % * % * 0 * > 5 5 * * * * * * 5 * 5 5 5 & 5 5 * 5 * * * ",
"S S A S S A S A S A A A A A | *.&XlXiX|.eXiXiXiXV.V.Q i 5 l l V E m B T Y l z Q l l z l j j g a q g q q w g e q g d l i p q & > > # % o     . . < . - - < < < < $ < $ $ < % % & > > > 5 * * * 5 & * = % % * * * > * 5 > * * * * 5 * 5 * 5 5 5 8 9 5 * 0 * 5 = * ",
"S A A S S S F A S A | A A V V B.NXeXB. XeXdXbXiX).Q i i m m z X.&.i.i.*._ Q Q _ Q Y T Q V P M l m l f g g j d j d g l l j d q q w > & % @ . . . - . . . @ - @ @ $ $ @   $ $ @ & > 0 p > 5 * * * * = * * * * % % * > * * * * * * * * * * * 5 5 5 5 5 5 * 5 * * = ",
"A S A S S A S A A A B S | A A 3XmXV.V.&X&XNXyX).&.l &.Q T l &.r. X+X!.p.e.u.e.;.%.' / ^ W Q Q U H B z l l z j l f h z l l f l f q w 9 * @ @ o . X - - - . . . . . < < @ $ $ O @ > > > 0 > * * * * = % * * % * * * * * * * 5 5 * 5 * 5 5 * 5 5 5 0 5 5 3 * * * & ",
"F A F S S S A F S S S | | A &.dX&X*.&XV.iXiX).&.&.u.t.V T T v.$X*X%XV.b.V.p.p.;.e.-.=.=.O.O.Q R V H H H M z H z z h l h z h z l j g a i * = @ . - X - X . . . . . - < < % < @ @ O $ * * u 5 * & = = * = % * % * : * * 5 * 5 & 5 5 * * 3 5 5 5 5 0 0 5 * * = & & ",
"S A A S S S Z C S | | | B A y.qXV.V.&XV.iX&X&.&.*.N.*.l P N.%X;X*X*X XW.b.p.p.a.e.q.q.;.=.O.! R K K H U V H z H z z z h h z h h k l g d 0 8 % @ . . - - - - . . .   < < ; % ; <   @ @ % * > * % * * = * = * * * * * * 5 5 8 5 * * 5 7 5 5 5 5 5 5 0 * 5 * = & & ",
"S S S F A S S C A A | A A *.|.[.J.&XV.V.).u.*.V.B.&.Q Q d.$X4X4XkXuX+X).W.p.a.a.q.;.;.+.+.+.Y Y Y Y K U K H H z z z z z z H z h h h h g j 6 > = . o X X - - - X       $ $ % , : % @ O O % * * * * * = * * * * * 5 * 5 > 5 * * 5 5 5 5 5 5 5 5 6 0 5 5 5 * & * * ",
"D S A S S S S S A A S Z | *.V.V.V.&X6.y.*.&.V.B.O.g V B.4XeX8X8XyX*X).Q.W.p.a.e.;.;.;.;.+./ ^ Q Y Y Y Y Y J H H z H H H H H h H H h h z j g 0 # @ . .   . . . - . . . .   . ; > , ; $   O & > > * * * = * * 5 5 5 5 5 5 5 5 5 5 5 5 5 5 5 5 5 5 9 5 5 5 * * * & ",
"A S A F A S S S S A A D | o.k.V.u.V.V.&.*.l.d.E i Q Q.eXuX5X*X5X*X).V.N.W.b.a.e.;.;.;.;.;.+.^ R Q Y Y Y Y K Y J H H H H H H H H H H H z j g q 5 1 @   . . . - - . .   .   . @ < , > & $ . $ % 0 * * * * * 5 5 * 5 5 * 5 3 * 3 * 5 5 5 i 5 5 i 5 6 5 0 * * 8 5 * ",
"S D S S D S S S | D A A o.y.H.B.&.y.J.Q *.J.&.i | &XmXdX5X5X1X+X(.b.v.b.b.p.e.;.;.;.;.&.+.+.' W W W ! Y Y Y Y Y U Y U U J Q J J J H z z j j g 0 8 < O   . . X - . . . . . . .   < ; > : $   % 0 5 * * 5 5 * 5 5 5 5 5 5 * * 5 * 5 5 5 5 5 5 7 i 5 6 5 5 5 * * * ",
"A A F A S D A D A D ) A D 2.B.y. .V.B.E &.| & E tXVXCXyX:X;X%X^.N.u.u.g.p.p.a.e.;.;.;.;.;.+.^ W ! ! ! Y K L K Y J J U Y Q J Q J J J H H z z l a 8 : : @ . X - X - . . - . . . .   $ ; , %   $ & 5 5 5 * * 5 i i 5 5 5 5 5 5 * 5 5 5 5 5 5 i 5 i 5 5 5 0 5 0 8 5 ",
"A S F A D A D S C C D E A A | *.*. X&.B m 3 ) pXJXJXAXaX3X;X^.W.v.t.t.u.p.e.e.e.;.;.%.;.%.+.] W ! ! R I U L Y U Y Y Y Y Y J J J Y Y J J K H M d q q > @ . . . . . - . . . . $ < .   @ ; > < < % 5 5 > 5 5 5 i 5 i i 5 5 5 5 5 5 5 5 5 i i 5 i 5 5 5 5 5 5 5 > 5 ",
"A F A S S D S D D A Z A V A E &.*X).B f e F 0XIXLXJXNX6X;X:X`.m.u.i.e.u.e.e.e.q.;.%.=.%.w.#.' W Y Y R R ~ U Y R Y Y Y Q Y Q Y Y Y J J Q H H M l a s w % . . . X . - - . . . . < % .   < % ; $ % * > 5 * 5 5 5 i i i i 5 5 5 * 5 5 5 5 5 5 5 5 i 5 5 i 5 i 5 5 * ",
"S S S S S A A S S D D A V | $.k.|.&.z B 1.2XJXPXIXFXdX-XXX].^.Q.a.;.;.e.e.e.e.e.-.-.-.-.=.#.{ R U R R R ~ R R ~ Y Q ! Q Q Q Y Y Q J Q Y U V M k a q 0 > % . . . . . . . . . . . < .   . < % % % * 5 > i i 5 i 5 i f i 5 5 5 * 5 5 5 5 5 5 i i 5 5 i 5 i i 5 5 5 ",
"S D S A D S A F S A S S | o.6./.*.Q *.&.L.FXLXPXPXCXsX'.^._.~.!.b.e.-.e.e.e.q.0.q.;.0.;.w.+.R I Y ~ ~ R R R ~ Y Q ! ! ! ! Q Y Y Y Y Y Y Y Y P l g 0 5 0 : $     . . . . - < < . . . . . $ $ < $ * * > i 5 i i i i i i i 5 5 * 5 7 5 * 5 i 5 5 i 5 5 5 i i 5 5 5 ",
"S S D S S S } F A } S | 6.V.).B.i.u.*.| dXLXGXLXKXNXwX`.L.S.S.^.W.;.;.e.e.;.0.0.t.q.=.=.-.] ~ R R R ' R W W W W ^ W ! Q Q W W ~ ! ! ! Y Y Y Y H d i a a 5 % O   . . $ $ . . . - . - . . . . $ % $ * p i i i i 5 5 5 5 5 5 5 5 * * 5 * 5 5 5 5 5 i i i i 5 i 5 i ",
"S S S D S S S S A A A 6.}.&XP.V.V.u.&. XLXKXGXJXAXmXqXXX~.Q.S.~.b.;.=.e.;.;.0.-.0.0.0.-.=.] ~ ~ R ^ ^ R R W W W ^ W ! W ! W R Y ! Y Q ! L L H z h g g d 6 & % %   $   $ . - - . . - . . . . $ < $ * 0 i 7 i i 5 i 5 5 5 5 5 * * * = * * 5 5 5 5 5 5 5 5 5 5 i 5 ",
"S S F S S S D S S S A k.&X$X). X).B.y.lXUXLXKXNXfX0X:X`.~.J.S.Q.p.=.=.e.;.%.-.;.0.0.-.=.] / ! ! ~ ^ ~ W W W ^ W W W W W W W R R ! Q W ! Y U H H z z l f w & = % $ $ . . . - . - . - . . . . . $ $ % * 5 5 i i i 5 5 5 8 5 * * 7 * * * * 5 * 5 5 5 5 i 5 5 5 5 i ",
"A S S S S S D S } A &.P.<X&X&X:XJ.l.&XGXIXGXZXmXfX3XoX X!.m.v.v.p.=.=.e.e.;.;.i.q.q.=.#.=.^ Y Y { ~ ! Y R / ^ W W W W W W ! W W ! Q W ^ Y U H U K U z z a 0 & = $ . . . . . - . . . - . . . . . $ = * i 5 i i i 5 5 5 5 * 5 5 = = = * * * * 5 6 5 5 i 7 i i 5 i ",
"S S A A S A S S A o.}.&X&XiXeX&X).i.iXIXJXAXBXmXfX>X=X@X`.J.n.h.g.q.-.0.q.0.q.w.e.q.=.=.+.~ Q ^ ^ ~ ! ! ! / ^ ^ / ^ ^ W R Y ~ ^ ! Q ! ! Y J J U T U Q V M q 5 & < $ .   . . . . - . - . $ . $   $ = * 5 5 i 5 5 6 5 5 5 5 * * & * = * & * 5 5 0 i 5 5 i 5 i i 5 ",
"A S S A S A A S A | V.|.&XdXiX:XJ.B.tXIXZXVXVXgX7X-X`.@X`.^.S.m.m.p.;.#.#.=.0.=.w.q.0.=.' W W +./ ~ ~ ~ W ' ^ ^ ^ W W Q U Q ~ ^ ! ! Q Q U J U U Y Q T V M f q & < $ . . . . . . . . . . $ - $ . $ $ * 0 5 i i 5 5 5 5 5 * * 7 & & * * * 5 5 6 0 i i i 5 i 5 5 i ",
"S S A A A A A S | | 3.V.&XyXeXiXV.J.lXIXAXmXmXwX2X-X@X`.`.^.m.g.b.p.w.+.] #.0.=.0.e.q.#.' / / +./ ~ ! ~ ' W W R Q Q Q U U Q Q Q W W Q Q J J J Y Y Y Q T T M g & % % @ . . . . . .   . - - $ . .   $ * > i 5 i i 5 5 * * * * * = * * * * * * 6 5 5 i i i 5 5 5 5 ",
"S } S A A A A S A | k.&XyXdXbX&XV.&XNXIXmXmXmXiX6X2X;X@X^.`.S.u.p.p.w.] { #.0.#.q.h.e.#.O.+.+.W ^ ! ~ / ' ^ W Q W Q Q Q R U U Q Q Q Y Q Q J Y Y L Q L U Q T k q & % . . . . . . . . . . $ - - .   $ * > 5 5 i i 5 5 * * * * * * * * * * 5 5 5 5 5 i 5 i i i 5 5 ",
"S A A A A S S S S | V.iXlXmXyX5X+X-XcXCXfXlXpX2X>X;X;X2X;X].Q.n.g.t.e.#.] ] ] q.a.p.u.;.O./ ' ~ / / +.+./ W W Q Y T U Y T Q Q L W Q Y Q L Y L L Y W W Y T T z 6 & < < % . . . X - - - - . - - . $ $ % i p 5 i i 5 5 * * * * = * * * * * 3 5 5 5 7 i i i 7 5 i 5 ",
"A A A A A } A S | k.OXeXlXyXyXeX@X;XpXxXfXvXfX6X-X6X2X;X1X;X~.Q.b.u.e.%.{ _ ] 0.a.h.g.0.O./ O.+./ O.+.O.O.W R T P M j l z M P Q Y Y L K Y Y Y Y Y Y W Q Y Y z 0 : # @ @ . . . X - X - X . . . .   $ % 0 p 5 5 i 5 5 * * * * * * * 3 * * 5 5 5 5 5 i i i i i 5 5 ",
"A A A A A A A A | k.$XeXeXiXiXiX/.#XrXzXaXwXfXsX2XsXwX-X;X2X].S.n.u.i.#.' ~ { =.a.b.v.0.O./ O.O.W  .O.W Y P M z k g r 6 6 r h z V Y U H Y Q Y Y ! Q Q R ( Q z g > ; @ O . . . . - X X - . . . - $ $ $ * i i 5 5 5 > 5 > * 5 * * & 3 5 * 5 5 5 5 i 5 i 5 i 5 5 5 ",
"| A A A S S A } o.c.oX$X&X$XeX:XJ.#X6XgXrXrXvXaX2XsXsX>X].-X].S.v.e.-.#.{ ^ ] #.e.h.g.-.O.^ ' W Q Q U V l b j 6 9 4 3 3 4 8 7 5 j U V H Q Y Y Y ! ! W W W Q z q 8 # @ @ o . - X . - X - . . - - $ $ $ > 5 5 5 i i i > 5 u * 5 * * * * * 5 5 i 5 5 i 5 i 5 i 7 5 ",
"A A A A S S } A 6.H.B.[. X#XiX$X).$X>XzXaXcXFXcX7X6X:X;X2X^.x.h.t.i.+.+.] [ ] #.e.a.e.] ~ ' R V U l j d q q 3 # 3 # 1 8 q r a 6 6 z K K U U Q R W W / R W W U q 8 ; @ @ # . . . . . X . . . - - $ $ % * u i 5 i 5 5 i 0 5 5 5 * 5 * 5 5 5 i 5 7 5 i 6 6 i 5 i 5 ",
"A S A A S A } | 4.6.x.J./.&X(.!.~.#X:XlXcXVXVX7X`.S.d.n.S.D.r.1.0.&.O.O.w.q.t.q.q.0.{ ~ U U K z m a 9 q # = + & # # q e M V z l 6 g M K K U Y ~ Q ! W R Q W T j 8 # < @ @ . . . . . - . . - . - $ $ = * 5 i 5 i i 5 0 5 5 * 5 * 5 5 5 i 5 i i i 6 i 7 6 5 i 7 i ",
"A A A A S S A } o.4. X[.l.B.d.l.V.+X#XtXNXVX2X3.` N V N N _ 1.( ' O.^ #.t.a.a.w.{ { R I H H h g 6 8 & # # # # # 8 e f m V M M l k j K T K L Q Y Q ! R Y Q Q T z w : # # . . . . . . . . . . - . $ $ % * 5 i i 5 5 i i > i > 5 * 5 i 5 5 i i i i 6 i 6 i i i i 5 ",
"A A A A S S A } 6.L.|.l.3.$.*.$.V.).XXzXAXsXs.T j 8 3 9 d d b M T Q ( #.t.a.t.{ { I I I z j q 9 8 5 * 5 8 w e e d b m m k M M P K k K R J J R Q ! Q Q Y Q Y L l q : # < @ . - . . . - . . - . . $ $ % > 5 i i 5 * i 5 i 5 5 5 5 5 5 5 i i i i i 6 6 6 5 i i i 5 ",
"A A A A | S S A 6.k.k.&.| *.| A d.J.+XdXmX(.( l q 5 = & 5 8 w w j M T %.t.u.0.R I U z k q q 3 3 3 * 6 0 6 d f d t b j t j z M H K U Y J J J J Y ! Q Q J Q ! J U g 8 # O @ - . - -   . . . @ . .   <   0 0 0 a 5 7 5 5 5 5 5 5 5 5 i 5 i 5 i 5 i 7 i i i i 5 6 i ",
"S A A A S A A A | o.6.&.&.6.&.A 3.J.XXfXlXM.X.k j 6 3 & # 3 5 8 5 d m E 1.r.R K K K k q 8 9 q 6 a w 0 0 s q q q e 8 9 q q 9 q M I U U K J J ! Y ! ! J J Q Q Q J g 8 # O . - . - - . . . . . - - < $ ; > > w i i 5 i i 5 5 5 5 5 i 5 i i i i i i 5 i i 5 5 5 5 5 ",
"A A A A S S A | S S 6.| *.y.&.B E d.`.cXsXu.3.$.X._ ( E m w : 8 & 8 8 g ( &.R U K I K k d k f f p 8 * q 0 8 & : e 9 q q q q q j z K K K J U Y J J ! Y Y ! ! Y J j 0 & # @ - - - . . . . - . - . .   @ > > i * i 5 5 5 i 5 5 5 5 i 5 5 i 7 i 6 i i 6 7 5 6 3 * 5 ",
"D D A A A S A A | &.*.| *.&.&.V M &.#XcX3Xn.v.3.1.r.3._ N m d 8 0 3 8 q g k T I K T T T M M M b q > & : # & # # : w x d j e 6 9 g z K J Y Y Y Y Y Y Y Y Q Q Q Y z q : # @ < < - - . . . . . - . . @ . & 0 a 5 5 i 5 5 5 5 5 5 5 i i i 5 i 5 6 i i 6 i 5 * * 5 5 ",
"A A A A A A | S V o.o.2.&.S A | E M `.NX3X!.v.O.#.X._ V m b x 0 3 & 9 f M k #.$.U Y ( ( P P N l 3 8 > : % @ @ $ O @ : 8 e d q 9 k H K U Y J Y J Y Y ! ! ! ! ! Y z q * % # - < < - . . . . < < - . < % $ > d 5 5 5 5 i 7 5 0 5 5 i 5 i i 5 5 6 6 0 6 5 3 3 * * 3 ",
"S S S D D A A A | } o.x.6.| | &.X.K `.FX7XS.i.M j M N N b w e x q 0 8 q ( [ u.g.W Q ' ' ( T N g # : : % @ % $ @ @ w c s 0 q 9 8 t h K L Y J Y Y Y ! J ! Y ! Q Q z g 3 = - @ @ . . .     . - < < @   @ O d ) 5 p i 5 5 5 5 5 5 0 i 5 i i 5 5 6 6 6 6 5 5 * 7 * * ",
"A A S S S A A A A C | 4.2.o.| &.1.3.$XFX@Xv.[ 9 T @.@.P e 8 8 8 s w 3 # k 1.g.h.+.( ' _ _ ( U q 3 : : % % % $     D 8.` e 8 9 9 g j H K J Y Y ! J J ! ! Y Y ! ! P k q # < # @ @ . . @ @ . o . - <   $ $ c X.* i 5 5 5 * 5 5 5 5 5 5 i 5 i 6 6 6 6 6 5 5 3 * * 7 ",
"A A S S S S A | A | 2.o.o.3.o.*.s.r. XCX@Xt.M z 1.k 1 # : # @ : 8 8 0 3 + 1.v.S.t.O.' W W ( T g 8 # # & : # $ @   d N b q j j r g h I R Q ! J J ! ! J ! ! ! ! / Y M d 5 # # O O O # 8 : . o . - . $ .   p c & 0 5 5 5 5 5 5 5 * i i 5 i i i i 6 6 6 6 5 5 3 & * ",
"A V A A V A A A A } | $.6.2.,.s.c.&.~.FX;X3.q U j 9 m m # o % w : # # 1 1 [ S.~.u.[ ^ R R T K j 4 3 # + & = # > w 0 d V T ( I I H K K K ! R Y L ! ! ! ! ! ! ! ! _ M j 6 q # % : w b m N ; . . .   .   . : 0 5 * 5 5 5 5 5 5 5 0 5 0 6 6 5 9 6 0 0 9 5 5 & & 8 * ",
"A A A A S S A A A A | ..,.5.,.s.x.&.c.GX7Xi.d g 6 N ` b O # 0 d 8 # 1 3 3 K h.Q.q.^ R Y ( K k r q 4 1 & 3 3 w a d d b N ( I I J H H H K K I Y L J ! ! J ! ! ! ! Q U j g q 8 e j b b e m x @ o @ . $     $ * > 5 5 * 5 5 * 5 * 0 5 6 0 0 5 0 6 8 5 5 9 5 5 & & 5 ",
"A A A A A A A A D V } V o.5.5.H.y.o.J.HX2Xd.P k _ 3.r.T q w w q e 8 8 q t R m.m.=.R U U I K k r r 7 7 7 3 5 q 6 e t k K U K I n K H K K L L Y L J ! ! ! ! ! ! ! Q U z g j M j b n g 1 9 b # . - . . $   @ * * * * 3 * * * * * * 5 > 0 5 6 5 5 5 5 5 > & & & & > ",
"A A A A A A A A B B E A x.2.5.M.y.o.&XLXtX(.+X+XQ.N.t.X.M f d x e r q j I %.m.a.#.R Y I I J J k r 6 8 6 9 9 8 9 q q t k H z y J P K K K ~ ~ ! L J ! ! ! ! J ! ! R Q z j M P P I ( T 4 + b < @ . . . $   $ ; * * 3 5 & 5 * * 3 * & 5 5 5 8 5 3 5 * 5 3 * & & * & ",
"A A A A A A A A E A B | y.E 3.y.B.5.XXIXNX;XuX].n.g.t.1.P b t q q 9 4 n ' u.W.a.] L L L L J H H z h g r t y t t t t k k y y I J L I I ~ ~ ~ ~ L J ! ! ! Y ! Q ! Y Q K K K P W #.w.t.K 3 b # @ @ . . $   $ $ * * * * * * * & * * 3 5 * 8 5 0 5 5 * 5 * & & & * & ",
"A A A A E A A A A A B &.$.| 6.o.l._.rXLXrXuXrX^.t.1._ M 9 4 q q 9 q n +.q.b.b.t.] L ~ ! Y L H H H z h g t k t n k k k k I y n I I L ~ ~ ~ ~ ! L ! J ! J Y Y ! Q R Y Y Y R U R #.w.0.( q n : o o . .   $ $ = * > * * * = 3 * * * * 5 5 5 5 5 5 * * * * * * & % : ",
"A A A A A A A A A A B | A | *.*.L.#XlXFXuXcX(.] =.~ H y y 9 t n n P w.g.b.W.b.e.] ! ~ ~ ~ L I H H z t t y y n n n y h k n n I ~ ~ ~ { ~ / ~ ~ ! ! ! Y Y Y Q ! ! Q L Y R W L K R ~ R I q t 8       . . $ $ % * , & & & 3 = * * = * * * * 3 5 5 5 5 * * % * % * : ",
"A A A A A A B A B A A B  .*.&.6.-X`.cXFXFX9Xt.{ ~ { h r k I { ] #.w.b.n.W.W.b.q.=.~ ~ ~ ~ I K H K H k y y t y k t k k k n n I I { { { ~ { ~ ! L J Y Y ! ! ! ! Y Y Y U Q Q K L ] R R I t t e # O   . . $ % * * * 5 & & 3 * * & * * 3 * * * 5 * * 5 * * * * % * * ",
"S A A A A V A V A A A A E E *.I.J.y.dXLXbX X X).h.{ { { { w.a.=.0.t.h.m.Q.Q.h.t.{ ~ ~ ~ / ~ Y Q K J K H r y y k n J k y n I I ~ { ] 1.] ~ { ~ R Y ! Y Q ! Q ! ! Y Y Y Q Y Q h z %.w.%.T q b 1 o $ .   $ % * * % * = = * * : : & * * * * * * 3 5 * 5 * * & % * * ",
"A V B A A A A A A S A V A B | 6.*.y.dXLX&X&XcX9XQ.h.w.w.=.=.=.=.0.#.a.^.^.~.W.#.{ ~ ~ ] ] ] O.R Y R R K y k k y y J n J I I I { ] ] ] { ^ ^ W ~ Y Q Y Y Y Y Q Q ! J Y Q W Q g 7 h W %.' t j # o . .   $ % * * % = & * % & & : > : * * * * 3 * * * * * 3 * & % * ",
"V S A A A V A Q A S V A B V | *.&.&.yXNXQ.uXNX9XQ.h.w.f.q.=.] { I w.^.].^.].h.%.~ ~ ~ { ^ #.#.Q I I ~ R M y h h k n k H I I ~ { =.#.#.{ ^ O./ ! ! Q Y Y J Y J Y Y Y R / ' ( j 7 7 h T ( k t 3 o   .   $ % , * % * * % * & % : & % * * * * & & * 5 * 3 * % * * * ",
"A A A A A A A S V A V A V E &.| A A iXiX1XFXFXcX@Xh.a.a.w.=.{ I ^ m.^.].1X8Xg.+.~ ~ I ~ ~ ] / L H k H R U h y k n n n I I I ~ =.w.w.#.{ ^ O./ ' W ! Y J Y Y Y Y Y Q / O.' W U j 7 7 r z b j 8 o   . $ $ , * , * * % = * : : & : * * * % & * 3 & * * * * * * % * ",
"A A A A A A A A A V A A B ) | A Q  .0XyXcXHXFXbX;XS.D.h.=.[ I ( Q.h.h.^.sXsXg.] ~ ~ ~ { / { ~ I I y 4 h R P k k k k H n I R { #.q.w.#.[ { ] O.W ! ! Q J Y J Q Q Y ! +./ W R ^ K 4 7 4 J y g q X   $ $ < , % > * % * = % : : ; % = % * * * * * 5 * * * * : % * * ",
"A A A A A A A A D Z A Z A | E A B  .tXNXVXLXLXzX;X^.S.t.#.I I h.S.I f.Q.sXyXd.] ~ I ~ { { ~ I I I n 4 4 h K I k k k k I I I { 0.q.=.] { { { ^ ~ ! Q J J J Q ! ! Q ! +.O.W R ] R J 7 7 y r j e o . . < % * * * * * = * * & & % : % * : * * * & * * * * & * * % * ",
"A S A A A A A S A A D B | X.Z A V 6.NXNXcXLXFXcX8X@XD.w.[ ( w.Q.( P h.Q.aXzXg.' ~ { { ] ] ~ I n I I t 4 4 t k n k k k H I U R #.w.#.{ { ^ ^ ^ R Q Q J ! Y ! J Q Y ! +.+.O.~ #.~ L 7 7 4 r M d o O   % & , % * = % * = * & ; & $ % * * % & * * * * * * * * * * * ",
"A A A A A A A V A Z A V ..o.m E V y.bXcXcXHXcXcX8X^.f.w.[ w.h.[ t @X7X5XVXzXu.( ~ / { { / { I I R ( n 4 7 9 t t n n n P R U R ] ] ] { { ^ ^ ~ Y ! Q Y Y Y Q ! Q L ! -.-.O.R ] ~ J 7 7 4 g M e o $ $ < : * * % * * * % % % & $ & % % & & * & & * * 3 * % * % ; * ",
"A A A A A | A A A A B A o.| B E l l.bXdXVXNX9X4X(.m.w.w.w.w.( 9 P zXsXcXHXsXq.( R { { ^ ~ ~ { { { I n t 2 2 9 t t n n I P K I ' ' { ~ R ~ W ! Q Y Q ! Y Q ! Q ! ! ~ ] =.-.^ H y J H h 4 M E q O @ % ; > : : : & : : * $ % & $ $ % % % & * * * * 3 & * * & % * * ",
"A A A A A A A A S A A A  .A B Z Q ).bXyXmXkX+X).g.u.r.<.[ I t 9 P @X7XcXNX-X` ( [ ] { { { { I ( n n n n t 1 1 4 e n n n K P U R ( R R R R ~ R R ! Q Q ! ! ! ^ ! L ~ ] #.] ! J J Y ! h r P M # O $ & & > > : * & % * ; & % $ < $ % % : & & : * * * * % * % * * % ",
"A A A A A A A A A A A A A A V V U %X4X8XbX9X!.v.t.q.1.{ P t e 1 9 1.h.~.].1.n M R ( ( I n t t t 9 t N ( P e # 1 9 t t n n K K I I R R R R ~ W ! ! Q ! ! Q ! ! Q Y ~ ~ R I L ~ ] / ! h z E e @ @ & % > : * * * & & # : % % ; $ & % % : : & : * : * % * * * % % * ",
"A A E A | A A A A A E V Z B A U V 1X+X9XbX*XW.e.q.[ ( P t 9 9 1 8 b e b 1.Z n t n I I k y 9 4 4 t b I [ [ n 8 1 9 9 t b k z M P I I R W Y W R ~ ! Q ! Q ! ! ! Q Y ! U I ~ R ~ ] ] J h R N # O % & > : : ; * & & % & % ; ; ; ; $ % : % ; : & : : * & * % % * * % ",
"A A | A A A A A A A A A V A A V T 5X X*XkX*Xb.;.#.( I k e 3 : # 1 1 8 w e b q t n n k t k I I b b P E ( [ ` b 1 1 8 9 b n n H n K I U Y U ! R Y R ~ ~ Y ! W ! Y L Y K I ~ ~ ~ ~ ~ K K ( q O % % * * * * * : * % % = % & < ; ; < % ; ; : ; % : > * * % * & * % , ",
"A A A A | A A A A V A A A B A V Q *X&X5XkX*XW.;.+.R K t 9 8 # # # # b f.` ` b e t n n n M P N n n I E ( [ 1.` t 1 1 8 t n t n n K K I R Q Y ~ W W W ~ W ! W ! Y L I h J ! ! ~ ~ J Y ~ z 2 O : : * * % * * $ = * & $ % % $ ; < ; % % % : * ; : * * = * * & = * % ",
"A A A | A A A A A A A A V A A V V +X9X*XuX*XW.;.+.I k q 0 e : : 8 # t D.f.1.` 9 q t n n n n t b b N T ( [ 1.[ ` b 8 1 9 t n n H K U K L Y Y W W R W ~ ! ! ! ! Y I H 9 I { R R I I R R 9 + & > , * $ % * * % % * % & & $ % % < ; # < % : * * , % % * * % = * % % ",
"A | A A A A A A S A B A A B V A l  XeX*XuX9X).;.^ M k d 0 8 # # < 8 P f.f.` P N q q 9 t t t b M P P ( ( ` [ [ ` P 9 2 9 t t b n K K J K L Y ! Q ! W ! Y ! Q Y J ~ h 2 k { [ ' ( ^ R k + & w $ > : * % * * * * % & & < & ; ; % < % % % % % % * , * % % * * % % * ",
"A A | A A A A A B A A A S B Q B z B.kX9XuX*X].e.W M g q 8 8 < # # 8 1.f.4.[ m b 0 q 8 q q e n m P Z ( ( _ [ ( E T P 9 + q M m M M U U U J Y Y Q Y R R Y Y Q Q H R y 7 t K @.@.E ` j # # 3 > > > & : & = % * = * % % & = % % % % % % % & ; : * % > % & & % % : * ",
"A A A A A A A A A A A A A A A B B ^ eXkXuXuX+Xe.Q z q 9 8 8 1 # # x 1.1.[ ` N x w 8 8 q 9 e t M T T ( _ [ [ { T T T k 1 3 q l N U L U U U Y Y Y Y R Y Y Y Y K H U h 4 t M ( ( E b 3 + 3 > & % * * : & * * % * % * % % % % % % % % % & $ : : ; * > : : % & & & & ",
"A A A A A A | A A A A A B A B A A l ].NX9XkX*Xp.^ z q 8 8 ; # # 1 N [ ` N N b 8 8 3 3 8 9 8 q k N T T ( ` ' ( T P P n 9 1 9 b M T U U U U U U Y Y Y Y Y Y Y K J K h q r q d g d # # 3 w 8 & $ , % * * % * * % * * % & & % % % % % % & ; : ; * : & : & : & & & $ ",
"A A A A A A A A A A A A Q B A A Q l ;.NXkXuX*XW.] M r 9 8 : O : e P P N b x q 0 8 0 8 q e q r j P P T P ( T P M M M M r & q M M T U L U J U J Y Y Q K Y J K H K K k g q & + + + # w e 0 : > * * * % % * $ % * % % % % $ % * % % % % ; * : : ; * : : : & % % & & ",
"A A A A A A A A A A A A B B Q A B A Q iXcXuX*XW.#.U g 9 8 # @ # e N b t j 0 e 0 0 q w q g q g j n n M n M M j M N N M t 2 1 k P Q U K Y K H U Y Y Y J U U H H J M z k g 2 O O = 3 e d : : : * % * % * * * $ * * % % * & # : ; # : : , : : ; * ; : & : % & % & : ",
"A A A A A A | A A A A A A A S S B V B u.bXkX9XW.;.W l q 3 & # # x N b e e 0 0 3 8 q 9 9 9 6 q g t t t 9 q q 8 9 d g m j 1 2 q P Q Q Y Q U K Y Y U J U Y U H H U H M M d = O = & : : > : : # ; ; $ * % $ * * * $ * : & & ; % : ; ; * ; : : : ; * : & : & : & & % ",
"A A A A A | A A A A A Q A A B B B S B Q (.kX8X^.e.] K g 3 # # & b b e w 3 & 3 3 & & * 3 9 a g g K I t k b q s w & : e d 8 + 9 M K Q Q K J U U U J U U U H H H H K M l a O = & * : & : > , : % * * $ * * * * * * % : & : : & % & ; * : : ; * ; , * % * ; * : : % ",
"A | A A A A A Q A A A A A S Q A S Q B B Q 9XuX(.u.%.T g q & = # b e 8 1 = = = & 3 5 7 5 g l M M T _ m ( $.) $.D 8 # 3 w 8 # 8 k K Q L K J U Y J J J U H H H H H z z z a = = % & : : & # % ; % % $ * $ * % % * $ & & : & ; & > % % : : ; : ; : : % * % & ; % & % ",
"A A A | A A A A A A Q A A Q A B A B B Q f V.kX&Xg.-.O.z 6 & & = w w # @ 8 e 8 8 w 0 d q z ( X.M E 3.` 6.x.4.7.8.9.w O : 8 # 3 b U Q Q U H H K U U U H H U H H H K l M d 3 * & : % > : : $ ; $ $ * $ * * : ; ; * % & % * : & & % : , ; : : : : : : ; & % % & ; : ",
"A A A A | A | A A A B A S S A A A B B Q B &.eX9XN.0.O.z j 3 O = 8 ; o @ e N d w 8 m E f l o.s.,.` l.1.f.x.8.7.>.F < . & & @ 3 f V U U H H H U U J U U H H V H H M z l m 3 & & O % % % % & % & & $ * * $ * : * % % * * % : : % & ; : : ; : ; : : : % % % % ; ; % ",
"| A A | A A A A A A A A B Q S A B A A B B H &XeX(.e.O.U g q O = < < # # c Z m x 0 Z >.` Z X.5.5.2.H.j.j.8.D D , ;   . # # # # q H U Q U H H K H H H V h H z l H P k j E s 0 S D Z G d > % @ . X $ % $ $ * : > % * * % % % * > * * ; ; * ; : : : % * ; % % % % : ",
"A A A A A | A A A A A B B B A A A B A B B V *.yX%Xg.%.T g e 3 = 1 # # # x G N m x m ` :.) >.3.f.4.7.>.` v < < X X X o < : # # s l H Q V H H K z H H z z z z l z M n n X. .a D ) ` ..:.2.9.o.D G u , $ , ; % % , % % * * * * % % ; : : : : ; % : % % $ $ % % % % ",
"A A A A Q | A A A A A Q A B B S A B S B B B V &XeXS.0._ z g 9 O # 1 # ; 8 x x c v N F D D >.:.>.G x ; . . X . . o . o ; : # @ q z H Q V H M z z z z z z z z z z z h h O.d.d p p : > > p m F >.4.j.4.>.G u , ; $ > = * = * % % , * % * * ; % : % % % $ $ @ % % % ",
"A | A A A A A A A A A A V A S Q A A B S Q B B y.yX+Xt.O.M g q & ; : , # # ; ; : 8 w w x w s s , . X   X X . X   - . o , w O # e l H U U M z z z z z h h l l h l z g k E M.| > s s p > : % : w p } 9.j.j.8.9.F v * % $ = * % % * ; ; ; ; & : : ; % % & ; < $ % ; ",
"| A A Q A S A A Q A A A A A A B B Q B Q A B B Q #X4XS.%.M g q g : : : # @ @ o o - @ @     X X X X X .   . - . . . o o w w # # q l z V z z z z z l z l l z h l z h h z P A.s.p d p p s e 0 > > > u >.j.j.8.j.j.4...D G u % = % % * ; * ; & % : & % % % % $ ; ; ; ",
"A A A A | &.A A A A A A A Q A B A S B A B A A i 5.eX%Xi.R j q q # # : : # < o . O @ ; @ ; .   . . .   . < < . . . # < w e # # 3 j z M z z l z z h l h z l l l l k j z j l.P.m s f s f s p 0 8 > , S 9.9.} ..>.} S >.9.4.9.| S u * * & $ $ % $ % % % $ $ ; & $ < ",
"A A A A A A | A A &.A A A A A Q A S B V V A A B f |.iXV._ z g g : O : : < # o o . . : 8 : w ; <   X @ # 8 w 8 < # o 8 x x # O 5 g l M k l k j l h l g l l z l k y y H g k.|.:.s f p p i p f 5 0 : v 9.Z.F.8.F.j.>.G v A :.2.4.7.4.4.4.o.} S G x w > @ O % $ % % ",
"A | A A | A A A A A | A A A A B A V A A B B V B B Q 3X:X<.g d 9 8 # : : # < . o @ . ; 8 w w w 1 @ # : w x x e < @ # 8 b f # O 3 g l M m k f l h l h g h h z l h y h V i 6.|.z.f p f p f i f a p D '.6X,X'.=X<X=X8.>.G v f p p f C S D ) o.:.,.4.4...F G d : O O ",
"A A | A | A S &.A | A A A A A A A V B S A A B B l A l.3XL.P g e 0 # # 8 : # o @ @ # : w w e 8 8 : e x b b x x # o 8 e b f q O 2 0 j M k l g j h h l g l l l h h g h z i 3.|.I.D u s d d f f d f x :.8.>.N 9.F.4.F G x u s > u p > p w u p > > p s m G C :.C.P.C.",
"A S &.A A A A A A A A A A | A A V A S S A A B A B f X.3X X@.9 q 0 @ # 8 8 8 @ o # # w e e e w 8 9 x x x b b b 1 1 e t b l 6 + 2 6 f b f h l g l l h g h g h l g h z z i 5.[.T.4.i f d f d a a a d 8 w w ; ; :.4.u w > > s p i u p s s p s s s s p s w > x >.I.<X",
"A A | A A A A A | A Q A A A A A A A S V S B B V o.|.cXFXtXx.M e e # # 8 w 8 # . - 8 e x e t e e e e q 9 b P t 1 8 t b t n 9 2 = 6 j l j l g l a l g l g j j l h k k z j k..XI.Z.f f f f f p d p d x f p f > C 9.w u w , > > 0 5 p p p p p p p p s p s d 8 > c :.",
"A A A Q &.A S &.A A A A Q A A A B B S B l S 7.oXMXJXIXUXCX@XP d d 8 # w e w 8 o # 8 b b e e e e 9 q e 9 n M 8 2 t b t t n t 1 2 w j j l l f d g l h g d g j j j h z M m A.OXI.K.A s s f f d f s p f a s c s > , w , , > 0 u p p 0 > * 0 p p p p p s s p p s p 0 ",
"A A A A S &.S A A A A A A A A Q B S } 7.}.iXMXPXJXGXGXAX8X2Xf.e b 0 # 8 w 9 8 # # 1 b e 9 9 8 1 8 9 t q t 8 1 9 b t n n n t 3 2 6 g d d g f a g l a g d g g j j y z l N K.=XP.I.9.p f f d d f f f d f m d f d % & > > > > * & & p 0 0 0 0 0 0 p 5 0 q p i a s d ",
"| A A A S A A A A &.| Q A A B | k.OXxXZXGXZXBXMXMXhXwX`.,.d.`.N e 9 # 1 8 8 w 1 o # e 9 9 t 9 9 9 9 8 9 9 2 4 j n b n n b b 4 1 5 p d a d l i d g a g g a g k h k k g ) _..XT.I.7.s s d d d s d d g m s d p d p % & > > * * 5 0 * 5 0 0 0 0 p a p p w p p w a a ",
"E S A D A A | ) &.A S A | o.}.dXSXPXIXZXgXwX0X6X:X-XL.s.| ( -X@.q 0 3 + 8 8 8 8 1 # # 3 9 1 4 4 3 3 q j 9 3 q M M j f M M g q 7 8 q d a a p a j f g g a a g g j h h g ,.=X'.Y.Y.Z.x p d f a f f d f k l d s q d 0 * % * > * * * * 0 5 0 0 6 w p p a i p p p a i ",
"A A | D E D D A B A o.V.iXDXKXJXKXZXMXwX#X[.XX|.L.L.x.s.X.m x._.e q # + 8 0 3 8 8 1 8 9 e q q q f k M f 4 9 M ( n k n M m d q 8 q p d a a a d d d d a g g g h k h z g k.=X=XR.U.Z.v s d f a f d f k f f f s s p p * * * * * > > 0 8 0 0 0 w a p w p a w a p p p ",
"| A A | D V | 2.V.iXAXKXPXKXGXZXVXwX@XP.c.c.H.B.A.A.s.<.X.) tXlXT 3 8 & 8 q 3 # 8 8 8 9 e q t t j j a 9 4 g k k b k k m l g q 0 q g d g a p a g g s a q t g j g j g N H.=X'.{.U.C.G s s f f f f f f f d l d d a s p * : > > > 0 0 5 0 0 i p i p a i p a p p p 0 ",
"A A D 4.H.oXjXNXGXKXGXZXAXmXhXgX:XA.x.s.k.M.k.s.v.s.5.X.5.6XJXGXH.# 9 # # w e 3 8 8 1 8 9 9 9 4 8 6 9 9 9 g f j k j k b j d q 9 0 d s a g s p d s a g q 6 r t g k 6 X._.=X'.R.U.U.A u f l d f f f f k f d d a w d p 0 * * * > 5 > 8 6 0 w w p 0 w a w p p i w i ",
"o.I.0XMXAXGXSXZXVXMXhXhXgXiX&X}.x.y.r.6.x.A.5.6.s.,. .,.,XGXCXLXpXd # 3 # 8 e 8 8 8 1 8 3 8 8 8 3 9 4 8 9 r j h j j h l g d q q q j d g s d d d d g q q g q g k j g d..X=X{.R.E.Y..., f f f f d f f f f a d a p p a p > > * > 0 p u 0 0 p p > p p p p p p p 0 p ",
"MXZXKXAXMXhXgXwX0X<X,XOX[.V.k.y.<.6.,.,.r.3.$.$.5.X.,.-XVXBXZXLXFX5.# 0 # 1 8 0 : : : 1 1 3 1 4 9 4 1 4 q r r r j j j j t d e e s j d g d d s q s q q q g j j g 9 l H..X=X{.E.R.R.:.> d d d d d f l f d f a d p 0 a p s > & > > 0 > 0 > > p p > 0 5 u 5 0 p p 0 ",
"ZXMXjX<X,X.X|.P.c.C.c.k.k.k.k.y.3.r.$.*.1.&.$.$.X.,.M.dXNXNXZXGXCXrXM w : : 8 8 8 1 < 1 1 8 8 9 1 9 q r r q r k g k j j j t t e g f d s e d q d d e q g g j j r 6 &._.|.=XR.E.Y.{.4., d j f d j f f f f d d a p a w p p 0 , > > 0 0 > > 0 u 0 u u 5 0 u u 0 0 0 ",
"0X,XoXI.z.k.k.k.y.k.6.6.k.k.6.2.5.%.*.<.1.$.@.$.%.M.XXoXNXCXGXGXMXLX,.5 : # 8 : w # 1 1 : 1 1 8 8 9 4 4 9 r r t g g t t t j g e d g q q d d d q q q q g g g r 4 g l.XX.X=XR.E.U..X8.w d f d f f l f d f f f p d d w p s w : > > > > > > * u 0 0 i > 0 p 5 s 0 0 ",
"L.A.x.s.6.r.s.s.d.s.s.y.s.y.f.5.<.$.,.O.@.$.$.<.M.L.|.XXpXGXJXAXgXIX>Xe 8 3 = # 0 8 # # : 3 : 3 # 8 8 q 8 q r g g g g g g g g j d g w g d 0 0 p q q d g t t r 2 ,.S.XX'.=XR.U.Y.}.j.u f f f l l d d d f f f i d p w 0 p s p > & 0 , > w 0 > > s > 0 0 0 0 0 u i ",
"s.s.5.5.5.6.s.s.y.s.s.s.s.d.r.5.*.,.$._ _ <.&.s.A.A.L.|.wXKXKXMXsXIXvX` 8 3 8 3 8 8 8 : # : : 1 : 8 3 q 8 9 q r g r q r j j f g d a q e a a a q a 6 e q j r 4 j f.I..X'.'.R.E.Y.}.9.> s f f f i f f f f f d p i p 0 0 p s p 0 > > > > > > > p > > p * p p 0 0 0 ",
"5.5.2.4.2.3.5.6.5.3.5.y.s.s.s.5.<.<.&.E E _ 3.H.A.A.L.|.0XKXKXgX;XIXFX_.p 3 5 & # 8 & 3 3 # # : 3 8 8 4 q 6 q t r r 6 g j k f d d q p s a 6 0 6 a 6 d q t 8 3 _ c.I.'..X'.T.F.U.}.9.u u i f l f f f f f f p d p 0 i p * p p s > > 8 8 > > 0 0 0 p > p p > p 0 p ",
"6.6.5.5.5.5.3.5.3.<.1.<.r.r.r.5.5.,.X.( T ( n.A.M.C.T.oX<XSXGX0X=XIXCXtXX.0 3 & & & # # : # 8 & 3 3 3 8 9 9 r t g r 6 q l m k d d q q p q 6 6 6 q q g q 6 1 d r.D.K.'.=XR.Y.E.E.}.} > p p s d d i f d i i d d p 0 p p 0 p s s s : > > > > p > > * p * p i 0 0 0 ",
"r.5.5.5.r.5.5.r.3.3.1.1.3.r.r.r.*.<. .T V t.J.l.B.c.OXoX,XZXAXoXXXJXFXdX/.m 8 q 8 1 & & 1 # & # 3 8 7 9 9 q r r g r r g k M b j s q w 6 q q 0 9 6 g q q 3 = T s.C.I..X.X}.}.E.F.E.F , u p f p d f f f d f f i p p i p u p 0 s p 0 > * > > 0 > 0 * > 5 p u p u 5 ",
"2.,.,.,.5.6.r.5.5.5.1.<.<.r.5.3.<.$. .m @.B.l.s.B.H.[.oX<XZXBX X_.GXGXfX:X$.0 9 6 9 3 # 3 8 3 3 9 0 9 6 q r g g g g r j b n f d d e a q 6 9 q q q r q q = 5 $.k.C.T.=X{.}.Y.E.F.G.S * 0 p a d f p p i d d p d f a p p p p p p s s > > > > > * > u 5 > > i > p p ",
"1.,.,.,.1.3.3.3.1.1.,.1.<.r.i.3.y.&.E E d.s.t.k.c.I.OXoX,XBXxXP.n.CXHXxX2Xx.V q q 8 3 3 8 3 3 & 6 9 9 9 r r r g g g j j l f j d 6 p p 6 9 q 9 r q q & + & l 4.x.I.{.{.[.Y.E.G.G.G.S ; u p p d f f f s f p f p d p a p s p 0 p p s p > > * > > 0 5 * u 5 5 u i > ",
"@.X.X.,.,.,.,.1.$.$.$.,.1.w.r.r.y.<.E t.s.*.k.x.V.[.oXoX#XmXpXH.s.AXJXcXwXL.<.d q q q 8 9 5 q q 6 9 9 7 6 6 q r r t t j f k g d q a w q q q r r 9 4 & + * | y.z.Y.{.{.[.}.Y.E.E.E.} * u d i f a f f i d f f p i p p p p 5 u u i p p s > * > > > > * 5 0 > p 5 u ",
"@.,.,.X.$.1.,.@.X._ _  .@.5.y.y.d.<.r.s.3.<.k.B.L.|.oXoXoX0X<XV.y.mXLXmXfX_.,.( 6 0 3 8 8 3 q q 9 9 9 6 q q r r 6 r g g j j d e p 0 6 q q q e r r 1 + & m o.k.C.}.[.[.}.}.}.G.G.G.G , p p p a f d f d d a p a d p a a p 0 u 5 > u p s p > * * u 5 > 5 u 5 u 5 5 ",
"_ X.X.,.<.1.$._ _ ( E T O.&.%.l.s.l.f.,.$.5.k.A.P.|.oXOXOX,XoXl.2.gXUXNXmX>XT [ N 7 q q 9 9 # q 6 q 9 9 6 9 q q 6 t f g d g e q q q w q q r r q 9 1 + 6 A 4.x.H.Y.[.}.}.Y.G.E.G.G.G , u p p f a i f f i p a p a p s p s p p p p i p s s u * * > * u * u 5 > 5 u ",
"@.X.X.@.@.1.&._ _ E _ Q E $.<.s.M.l.5.&.,.5.k.I.|.oXoXoX|.|.L.y.,.0XLXAXfXwXs.f $.k 3 5 3 & q 8 q q q 5 9 q q 6 q q g d g q q e q i e g q r 9 9 1 # : b  .6.A.I.[.[.[.}.E.F.G.G.Z.G ; p p f a f d d p d a p p p a p p p p p p p u > p p p i * * 5 u 5 i 5 u u 0 ",
",.@.X. .@.@.X._ _ E T Z  .&.i.l.x.,.$.3.<.y.x.A.|.oXoXoXoX|.H.y.o.oXJXAXdXtX:Xf f X.9 3 4 1 3 3 q 9 9 8 0 q 6 9 q q r e q d q q q g q q t t 9 3 # # q F ,.j.C.E.[.[.}.}.E.F.G.G.Z.G * p p i a a d s d d d s a d p p p p p u i > u i p p p u * * * * > > 5 > 5 p ",
"@.X. .X.,.X. .) V E B T ) _ i.M.5.X.,.3.5.x.M.M.|.OXoXoXoX|.M.5.o.A.JXCXhXpX6Xl.1 g N j & 3 3 q w q 8 9 8 q 8 0 q q 6 e q q e g r r r q q q 1 1 3 8 m ) 4.z.H.P.{.{.}.Y.G.G.F.F.Z.G > 0 p w a s p f d f p d d p p w p p s p u 5 * u > i p p p 5 * 5 5 u u p 5 u ",
"X. ._ X.X.X.| ( T V l M V &.l.5.A X.,.<.k.c.H.L.[.OXoXoX XL.c.5.,.7.KXSXzXdX6X-X_ o j N g 1 1 3 3 : w 8 8 8 5 q a q 0 g d g e j k t r q 9 3 1 + 8 s N o.7.c.I.T.R.}.}.U.F.F.G.G.F.C > u 0 i a a p d d d d p p a a a a p p p p p 5 p > > 0 p p p > > 5 p 5 > > 5 ",
"@.X._  .X._ E T V l B l V y.l.E A ( X.w.B.A.J.[.|.OXoXOX|.H.x.5.,.7.AXJXhXpXrX-Xn.N + t ` n 3 1 3 8 8 3 3 3 8 8 q w 6 q g j b n n j r 9 4 1 1 # e b ) 2.k.A.L.T.T.{.Y.E.G.G.G.Z.K.F > 0 0 0 a q d d d d p p i p p a s s p p p p > u 5 > u p p p u p 5 > u > u 0 ",
",.X. .X.` ) V V z l l d @.l. .T ) S  .5.l.J.|.L.OXOX|.|.P.H.x.5.@.4.VXKXvXhXpX2XP.r.4 & t [ ` e w 8 1 8 8 8 q q g 8 9 a f n M K n j r q 3 # 1 9 f N ..6.x.G.K.Y.R.{.Y.F.G.G.E.G.K.F s p 0 0 s q d d s d d p p a a p p p p p p p i 0 0 i > 5 p u i p p > 5 p 0 0 ",
"X.@.X.X. .) ( T m l q ` D.,.T N N E X.5.M.L.[.|.|.oXoX|.J.c.y.&.,. .MXLXBXhXjX6XP.D.1.3 2 k R { n P T P t q q 8 q 9 9 t n P I P P r 9 9 3 7 9 g f T 1.7.z.H.Y.}.R.R.E.F.C.E.K.F.U.>.w e w p e a p p p f f p p s p p > p p p p 0 > 5 i u u 5 > u u p p > > > 0 p ",
"X.<.X._  .) ( m M g N n.r.( E M V ) <.s.A.H.P.|.OXoXoXP.H.x.<.X.@.( hXPXBXhXgX0X_.D.d.T + 4 t I I ^ 1.[ P z j 4 q q t b M P I n t k q 1 3 + d l m  .6.k.C.K.}.}.R.R.U.F.F.F.K.F.U.9.w w w p w 0 i f p p p s p p p i u p p p p u 0 u 0 0 5 p u i s p p 0 i 0 > 5 ",
"X.$.X.@.X.E E b d k d.r.&.T f m N X.6.B.H.J.[.|. XOX|._.A.y.,.X.@.E pXPXBXvXhX0X XH.M.i.9 7 4 r t I @.w.[ K k d r j k n P I I n j t q r 3 q M f _ ,.5.x.C.K.Y.[.{.R.U.E.F.F.K.K.T.9.w w 0 p w 0 p p i p p p p p f p p p p u p 5 i p 0 0 0 > 0 u s p p p u 5 5 > ",
"X._ @.,.) ) E b f s.r.X.E b m M _ ,.s.x.J.L.|.|.OX|.|.P.x.6.X._ >.A wXUXBXMXhXjX,XP.n.d.[ 1 1 9 9 4 n [ [ K k j t k b n P I I n t 9 r 1 q N N A X.5.j.z.H.P.[.[.{.T.U.E.F.F.K.E.R.8.s , p d 6 0 p p u p p p p i s p p p > 5 p > > 0 0 0 0 0 p 0 p > * * 5 u 5 p ",
"X.X.,.X.` ) Z m w.x.<._ M d m M X.3.s.l.A.P.|.|.|.P.H.A.l.5.X.( >.T wXUXDXnXnXjX>X_.M.M.x.M + 9 9 4 4 h n M k r r j h t t I H n t t w j l.,.|  .$.5.k.A.K.I.[.{.Y.Y.E.F.G.E.E.E.Y.j.u > 0 p 0 9 5 p 5 u 0 p p u p u i u 5 u 5 p > u u p p 5 u 0 * * * * u 0 0 p ",
"X.,.$.X._ E Z 5.x.<.,.N M k j V o.5.l.c.A.L.|.oXOX|.L.c.6.X. . .` F jXUXSXnXnXjX<X-XP.A.L.l.9 + 9 9 9 7 4 r r q 4 q r r y k k y r t q `.<X2.S B B D :.z.K.{.{.{.R.Y.E.F.G.K.E.U.Y.z.v > w w w 0 p > 5 5 0 0 p p u i u i p 5 u 5 5 5 5 p p u u > * * * p i u > 5 ",
"` ,.@.,.o.E :.B.5.,.N M f b f N X.5.c.c.H.P.|. X|.|.H.k.3.X. .:.>.` nXUXSXDXnXjX0X<XOXP.`.@X,.& 4 4 4 4 4 4 9 9 4 4 4 r y t t r q q ,.pXA.B G B s v v u F j.T..XR.R.Y.F.G.F.U.E.T.C.v w 0 p w a i p u 5 > 0 u i 5 u i u i u > p p 5 u p 5 > 5 * * > > p p p p 5 ",
") ,.X.X.( @.x.5.5.( E N d d b T X.5.B.A.K._.|.|.|.L.c.s.5.,.@.X.} F nXUXSXDXnXnXjX0X-XOX=XoXP.m 3 4 9 4 9 4 4 4 4 4 4 4 9 r y r r 8 _.+X..A A G G u % <   ; F z.}.}.Y.F.F.E.U.U.Y.F.G w > > w 0 0 > p p i > 5 > > > 0 i u > i > p u 5 > 5 > * * * > > 5 * u p > ",
"X.,.,.) ,.x.s.,.,.) N m m k m A &.6.c.V.L.P.|.|.P.A.x.k.5.$.o.&.( | hXPXKXSXnXnXjXwX0X<X-X=X-X8.# 9 9 3 9 3 9 6 4 7 9 4 k t t e 9 $.oXk.} 9.G F c u $ % * $ $ , 9.Y.{.F.F.E.Y.E.E.E.C u > 0 w i p 5 i u i u 5 u u 5 5 u 5 5 u i > u u > & * * * * u 5 u 0 u p 0 ",
"X. .X.1.f.s.,.5.1. .A m f f m ) 2.k.c.H.H.J.|.|.H.A.x.k.5.,. .| ) ,.hXPXPXDXDXjXMXjX0X,XT.H.'.-X( & q q 9 9 9 2 1 q 2 1 q 9 q q X.XXc.4.9.F F v u % $ ; ; $ $ % ; 9.Y.E.F.R.U.}.U.Y.D > > p w p p u > p 5 > 5 5 5 * * > > * , * 0 > 5 * = * * > * i p 5 > p i u ",
"X.:.3.s.k.5.,.,.,.) Z x d d m ` 3.c.H.L.H.L.[.H.c.c.l.k.6.$.) ) E :.MXDXSXSXDXBX<XE.o.f w > D H.L.N w 3 + 3 0 9 1 1 1 q + 6 q @.XXA.7.9.} C F G * ; ; ; , % % % < v j.R.F.E.U.E.Y.Y.} , p p 0 p p u i p p > > u > u > 5 5 * * * 0 > * = & * > > u > u u 0 0 u u ",
"_ ,.f.x.f.3.3.X.,._ N m f j N  .6.c.H.L.H.H.H.z.c.A.x.6.5.$.)  .A 4.MXBXSXPXgXF.F s   X : % ; b 5.x.l.y.E & + O + o & # 0 3 _ -XT.z.>.} F } F u $ ; * ; $ $ % , , < F F.Y.E.}.Y.Y.Y...> u p 0 p p 5 p > > i > 5 i > > 0 , 5 * > > * * % * * 0 i 5 5 5 > 0 0 p 5 ",
"` :.,.s.f.,.2.1.,.` A m d f N ,.x.c.H.L.H.l.x.c.A.A.x.5.,.X.E ) C 6.AXBXSXjX9.u x v > % : @ < < w D ..f.H.A.d.5.` b # # % ) ,XI.c.z.| F } F v , $ ; * % % ; > u , , , >.U.Y.E.R.U.U.:.> p 0 > p p u i u i 5 u 5 * 0 0 > > p p > > * * * * * * > p * p > u 0 u 0 ",
") 2. .X.7.3.:.,.,. .Z b e d A 5.c.J.H.c.k.k.c.c.C.A.k.3.,. .S ( f D.NXDXjX>., v u x > ; :   , # @ f C C m ) 2.D.`.L.8.m x ,X'.G.K.>.} D v u , - $ ; * % , u u u w w w u 4.T.Y.R.Y.U.8., u > 5 p p 5 p p u 5 5 u 0 0 5 > 5 * * * u > * * * * > > > p > 0 0 u w 0 ",
"..,.$.X.4.5.,.X.X.) E N d f ) s.c.I.c.k.z.l.c.c.A.c.y.2.,.) Z E N D.SXnXZ.v G v v x > > w : : . : s N C c s : w f A :.8.T..XZ.Z.4.>.v u , ; , : % , % % u u u u s , u , v z.{.{.R.U.j.u > > 0 5 p p p 5 u > u 5 0 > > 5 0 > * 0 p , u * 0 u > * * p > s s 0 0 s ",
"|  .4.,.@.,.5.,._ ) ) N m M  .k.M.c.5.6.c.l.7.c.B.x.6.,.$.) E ) b T.SX<X>.v G v x s s : : ; @ < : v , x w : # # # : w m _.K.8.9.F u , , u u w v s p % * c c u u w w , w u } E.{.R.U.z.s 0 u p p p p u i 5 i > 0 > i > > > > 0 > , > * 0 0 0 p p * * > 0 > 0 w , "
};
